<?xml version="1.0" encoding="UTF-8" standalone="no"?>
<!-- Generated by IcoMoon.io -->

<svg
   xmlns:dc="http://purl.org/dc/elements/1.1/"
   xmlns:cc="http://creativecommons.org/ns#"
   xmlns:rdf="http://www.w3.org/1999/02/22-rdf-syntax-ns#"
   xmlns:svg="http://www.w3.org/2000/svg"
   xmlns="http://www.w3.org/2000/svg"
   xmlns:sodipodi="http://sodipodi.sourceforge.net/DTD/sodipodi-0.dtd"
   xmlns:inkscape="http://www.inkscape.org/namespaces/inkscape"
   version="1.1"
   width="16"
   height="22"
   viewBox="0 0 16 22"
   id="svg2"
   inkscape:version="0.48.4 r9939"
   sodipodi:docname="button-listcleanup.svg"
   inkscape:export-filename="/tmp/button-listcleanup.png"
   inkscape:export-xdpi="90"
   inkscape:export-ydpi="90">
  <metadata
     id="metadata12">
    <rdf:RDF>
      <cc:Work
         rdf:about="">
        <dc:format>image/svg+xml</dc:format>
        <dc:type
           rdf:resource="http://purl.org/dc/dcmitype/StillImage" />
        <dc:title />
      </cc:Work>
    </rdf:RDF>
  </metadata>
  <defs
     id="defs10" />
  <sodipodi:namedview
     pagecolor="#8d8d8d"
     bordercolor="#666666"
     borderopacity="1"
     objecttolerance="10"
     gridtolerance="10"
     guidetolerance="10"
     inkscape:pageopacity="0.60784314"
     inkscape:pageshadow="2"
     inkscape:window-width="1920"
     inkscape:window-height="1031"
     id="namedview8"
     showgrid="false"
     inkscape:zoom="29.5"
     inkscape:cx="11.480774"
     inkscape:cy="12.82394"
     inkscape:window-x="1280"
     inkscape:window-y="0"
     inkscape:window-maximized="1"
     inkscape:current-layer="svg2" />
  <g
     id="g4"
     transform="translate(0,-10)" />
  <rect
     style="color:#000000;fill:#000000;fill-opacity:1;fill-rule:nonzero;stroke:none;stroke-width:30;marker:none;visibility:visible;display:inline;overflow:visible;enable-background:accumulate"
     id="rect2989-4"
     width="10"
     height="2"
     x="6"
     y="9.9999323"
     ry="0.44444439"
     rx="0.32351667" />
  <rect
     style="color:#000000;fill:#000000;fill-opacity:1;fill-rule:nonzero;stroke:none;stroke-width:30;marker:none;visibility:visible;display:inline;overflow:visible;enable-background:accumulate"
     id="rect2989-9-3"
     width="12"
     height="2"
     x="4"
     y="5"
     ry="0.44444439"
     rx="0.32351667" />
  <rect
     style="color:#000000;fill:#000000;fill-opacity:1;fill-rule:nonzero;stroke:none;stroke-width:30;marker:none;visibility:visible;display:inline;overflow:visible;enable-background:accumulate"
     id="rect2989-9-3-5"
     width="12"
     height="2"
     x="4"
     y="15"
     ry="0.44444439"
     rx="0.32351667" />
  <path
     sodipodi:type="arc"
     style="color:#000000;fill:#000000;fill-opacity:1;fill-rule:nonzero;stroke:none;stroke-width:30;marker:none;visibility:visible;display:inline;overflow:visible;enable-background:accumulate"
     id="path4137"
     sodipodi:cx="2.2033899"
     sodipodi:cy="6.7118645"
     sodipodi:rx="1.1186441"
     sodipodi:ry="1.1186441"
     d="m 3.322034,6.7118645 a 1.1186441,1.1186441 0 1 1 -2.2372882,0 1.1186441,1.1186441 0 1 1 2.2372882,0 z"
     transform="matrix(1.9166665,0,0,1.9166665,-2.079096,-1.8644735)" />
  <rect
     style="color:#000000;fill:#000000;fill-opacity:1;fill-rule:nonzero;stroke:none;stroke-width:30;marker:none;visibility:visible;display:inline;overflow:visible;enable-background:accumulate"
     id="rect4190"
     width="3"
     height="2"
     x="0"
     y="5"
     rx="0.48326612"
     ry="0.34380239" />
  <rect
     style="color:#000000;fill:#000000;fill-opacity:1;fill-rule:nonzero;stroke:none;stroke-width:30;marker:none;visibility:visible;display:inline;overflow:visible;enable-background:accumulate"
     id="rect4190-9"
     width="2"
     height="2"
     x="0"
     y="15"
     rx="0.48326612"
     ry="0.34380239" />
</svg>
