<?xml version="1.0" encoding="UTF-8" standalone="no"?>
<svg
   xmlns:dc="http://purl.org/dc/elements/1.1/"
   xmlns:cc="http://creativecommons.org/ns#"
   xmlns:rdf="http://www.w3.org/1999/02/22-rdf-syntax-ns#"
   xmlns:svg="http://www.w3.org/2000/svg"
   xmlns="http://www.w3.org/2000/svg"
   xmlns:sodipodi="http://sodipodi.sourceforge.net/DTD/sodipodi-0.dtd"
   xmlns:inkscape="http://www.inkscape.org/namespaces/inkscape"
   id="svg1"
   sodipodi:docname="save.svg"
   viewBox="0 0 16 22"
   sodipodi:version="0.32"
   _SVGFile__filename="oldscale/devices/3floppy_mount.svg"
   version="1.0"
   y="0"
   x="0"
   inkscape:version="0.48.4 r9939"
   width="100%"
   height="100%"
   inkscape:export-filename="/var/www/demosphere/paris/dlib/save.png"
   inkscape:export-xdpi="90"
   inkscape:export-ydpi="90">
  <defs
     id="defs13" />
  <sodipodi:namedview
     id="base"
     bordercolor="#666666"
     inkscape:pageshadow="2"
     inkscape:window-y="0"
     pagecolor="#ffffff"
     inkscape:window-height="1026"
     inkscape:zoom="31.544888"
     inkscape:window-x="1920"
     borderopacity="1.0"
     inkscape:current-layer="g1077"
     inkscape:cx="6.2333402"
     inkscape:cy="7.4956127"
     inkscape:window-width="1920"
     inkscape:pageopacity="0.0000000"
     showgrid="false"
     inkscape:window-maximized="1" />
  <path
     id="path646"
     style="fill:#ffffff;fill-rule:evenodd;stroke-linecap:round;stroke-linejoin:round"
     d="m 1.1359205,3.4983364 c -0.35322206,0 -0.6375849,0.2739939 -0.6375849,0.6143372 V 17.887328 c 0,0.340343 0.28436284,0.614336 0.6375849,0.614336 H 14.864079 c 0.353222,0 0.637585,-0.273993 0.637585,-0.614336 V 5.5238045 L 13.389345,3.4984899 H 1.1359205 z"
     inkscape:connector-curvature="0" />
  <g
     id="g1077"
     transform="matrix(-0.31909751,0,0,0.27732037,16.734153,2.0380187)">
    <path
       id="path655"
       style="fill:#ffffff;fill-rule:evenodd;stroke:#000000;stroke-width:3.36161089;stroke-linecap:round;stroke-linejoin:round;stroke-miterlimit:4;stroke-dasharray:none"
       d="M 16.402989,5.2718137 V 17.449786 c 0,1.244283 1.121434,2.245779 2.515674,2.245779 h 16.904576 c 1.39424,0 2.516618,-1.001496 2.516618,-2.245779 V 5.2718137"
       inkscape:connector-curvature="0" />
    <path
       id="rect656"
       style="fill:#000000;fill-rule:evenodd;stroke-width:1.25;stroke-linecap:round;stroke-linejoin:round"
       transform="matrix(0.97845,0,0,0.97845,0.43127,0.25189)"
       d="m 20.916,7.9808 c -0.775,0 -1.4,0.624 -1.4,1.3991 v 6.2431 c 0,0.775 0.625,1.399 1.4,1.399 h 3.788 c 0.776,0 1.4,-0.624 1.4,-1.399 V 9.3799 c 0,-0.7751 -0.624,-1.3991 -1.4,-1.3991 h -3.788 z"
       inkscape:connector-curvature="0" />
  </g>
  <path
     id="path659"
     style="fill:none;stroke:#000000;stroke-width:0.9966712;stroke-linecap:round;stroke-linejoin:round;stroke-miterlimit:4;stroke-dasharray:none"
     d="m 1.1359205,3.4983364 c -0.35322206,0 -0.6375849,0.2739939 -0.6375849,0.6143372 V 17.887328 c 0,0.340343 0.28436284,0.614336 0.6375849,0.614336 H 14.864079 c 0.353222,0 0.637585,-0.273993 0.637585,-0.614336 V 5.5238045 L 13.389345,3.4984899 H 1.1359205 z"
     inkscape:connector-curvature="0" />
  <path
     id="rect731"
     sodipodi:nodetypes="ccccccccc"
     style="fill:#000000;fill-rule:evenodd;stroke-width:1.25;stroke-linecap:round;stroke-linejoin:round"
     d="M 2.6230864,10 C 2.2777099,10 2,10.243927 2,10.546686 v 5.906627 C 2,16.756072 2.2777099,17 2.6230864,17 H 13.376914 C 13.721983,17 14,16.756072 14,16.453313 V 10.546686 C 14,10.243927 13.721983,10 13.376914,10 H 2.6230864 z"
     inkscape:connector-curvature="0" />
  <metadata
     id="metadata11">
    <rdf:RDF>
      <cc:Work>
        <dc:format>image/svg+xml</dc:format>
        <dc:type
           rdf:resource="http://purl.org/dc/dcmitype/StillImage" />
        <cc:license
           rdf:resource="http://creativecommons.org/licenses/publicdomain/" />
        <dc:publisher>
          <cc:Agent
             rdf:about="http://openclipart.org/">
            <dc:title>Openclipart</dc:title>
          </cc:Agent>
        </dc:publisher>
        <dc:title />
      </cc:Work>
      <cc:License
         rdf:about="http://creativecommons.org/licenses/publicdomain/">
        <cc:permits
           rdf:resource="http://creativecommons.org/ns#Reproduction" />
        <cc:permits
           rdf:resource="http://creativecommons.org/ns#Distribution" />
        <cc:permits
           rdf:resource="http://creativecommons.org/ns#DerivativeWorks" />
      </cc:License>
    </rdf:RDF>
  </metadata>
</svg>
