<?xml version="1.0" encoding="UTF-8" standalone="no"?>
<!-- Created with Inkscape (http://www.inkscape.org/) -->

<svg
   xmlns:dc="http://purl.org/dc/elements/1.1/"
   xmlns:cc="http://creativecommons.org/ns#"
   xmlns:rdf="http://www.w3.org/1999/02/22-rdf-syntax-ns#"
   xmlns:svg="http://www.w3.org/2000/svg"
   xmlns="http://www.w3.org/2000/svg"
   xmlns:xlink="http://www.w3.org/1999/xlink"
   xmlns:sodipodi="http://sodipodi.sourceforge.net/DTD/sodipodi-0.dtd"
   xmlns:inkscape="http://www.inkscape.org/namespaces/inkscape"
   width="226"
   height="140"
   id="svg2"
   sodipodi:version="0.32"
   inkscape:version="0.48.4 r9939"
   version="1.0"
   sodipodi:docname="view-map.svg"
   inkscape:output_extension="org.inkscape.output.svg.inkscape"
   inkscape:export-filename="/tmp/view-map.png"
   inkscape:export-xdpi="90"
   inkscape:export-ydpi="90"
   style="display:inline">
  <sodipodi:namedview
     id="base"
     pagecolor="#ff870c"
     bordercolor="#666666"
     borderopacity="1.0"
     gridtolerance="10000"
     guidetolerance="3"
     objecttolerance="3"
     inkscape:pageopacity="0.89411765"
     inkscape:pageshadow="2"
     inkscape:zoom="2.8284271"
     inkscape:cx="252.54083"
     inkscape:cy="107.46596"
     inkscape:document-units="px"
     inkscape:current-layer="layer1"
     showgrid="true"
     borderlayer="true"
     inkscape:window-width="1920"
     inkscape:window-height="1031"
     inkscape:window-x="1280"
     inkscape:window-y="0"
     inkscape:snap-bbox="true"
     inkscape:bbox-paths="true"
     inkscape:bbox-nodes="true"
     showguides="true"
     inkscape:guide-bbox="true"
     inkscape:snap-global="true"
     inkscape:window-maximized="1">
    <inkscape:grid
       empspacing="1"
       spacingy="1px"
       spacingx="1px"
       enabled="true"
       visible="true"
       id="grid2665"
       type="xygrid"
       snapvisiblegridlinesonly="true" />
  </sodipodi:namedview>
  <defs
     id="defs4">
    <linearGradient
       id="linearGradient4175">
      <stop
         style="stop-color:#dff3d9;stop-opacity:1;"
         offset="0"
         id="stop4177" />
      <stop
         style="stop-color:#8fd049;stop-opacity:1;"
         offset="1"
         id="stop4179" />
    </linearGradient>
    <linearGradient
       id="linearGradient3399">
      <stop
         style="stop-color:#dff3d9;stop-opacity:1;"
         offset="0"
         id="stop3401" />
      <stop
         style="stop-color:#1e9010;stop-opacity:1;"
         offset="1"
         id="stop3403" />
    </linearGradient>
    <linearGradient
       id="linearGradient3543">
      <stop
         style="stop-color:#dff3d9;stop-opacity:1;"
         offset="0"
         id="stop3545" />
      <stop
         id="stop3547"
         offset="0.5"
         style="stop-color:#93d049;stop-opacity:1;" />
      <stop
         style="stop-color:#008000;stop-opacity:1"
         offset="1"
         id="stop3549" />
    </linearGradient>
    <linearGradient
       id="linearGradient3577">
      <stop
         id="stop3579"
         offset="0"
         style="stop-color:#cea28e;stop-opacity:1;" />
      <stop
         id="stop3581"
         offset="1"
         style="stop-color:#fbf6f2;stop-opacity:1;" />
    </linearGradient>
    <linearGradient
       id="linearGradient3523">
      <stop
         id="stop3525"
         offset="0"
         style="stop-color:#dff3d9;stop-opacity:1;" />
      <stop
         style="stop-color:#93d049;stop-opacity:1;"
         offset="0.5"
         id="stop3531" />
      <stop
         id="stop3527"
         offset="1"
         style="stop-color:#8fd049;stop-opacity:1;" />
    </linearGradient>
    <linearGradient
       id="linearGradient6279">
      <stop
         id="stop6281"
         offset="0"
         style="stop-color:#ffffff;stop-opacity:1;" />
      <stop
         style="stop-color:#0e29ff;stop-opacity:1;"
         offset="1"
         id="stop6289" />
    </linearGradient>
    <linearGradient
       id="linearGradient3569">
      <stop
         id="stop3571"
         offset="0"
         style="stop-color:#cfe9ff;stop-opacity:1;" />
      <stop
         id="stop3573"
         offset="1"
         style="stop-color:#0089ff;stop-opacity:0;" />
    </linearGradient>
    <linearGradient
       id="linearGradient3653">
      <stop
         id="stop3655"
         offset="0"
         style="stop-color:#ffffff;stop-opacity:1;" />
      <stop
         id="stop3657"
         offset="1"
         style="stop-color:#ffffff;stop-opacity:0;" />
    </linearGradient>
    <linearGradient
       id="linearGradient3643">
      <stop
         style="stop-color:#58f326;stop-opacity:1;"
         offset="0"
         id="stop3645" />
      <stop
         style="stop-color:#ffffff;stop-opacity:1;"
         offset="1"
         id="stop3647" />
    </linearGradient>
    <linearGradient
       id="linearGradient3489">
      <stop
         id="stop3491"
         offset="0"
         style="stop-color:#dca053;stop-opacity:1;" />
      <stop
         id="stop3493"
         offset="1"
         style="stop-color:#ffe9db;stop-opacity:1;" />
    </linearGradient>
    <linearGradient
       id="linearGradient4134">
      <stop
         id="stop4136"
         offset="0"
         style="stop-color:#ffffff;stop-opacity:1;" />
      <stop
         id="stop4138"
         offset="1"
         style="stop-color:#ffffff;stop-opacity:0;" />
    </linearGradient>
    <linearGradient
       id="linearGradient3406">
      <stop
         id="stop3408"
         offset="0"
         style="stop-color:#d79286;stop-opacity:1;" />
      <stop
         id="stop3410"
         offset="1"
         style="stop-color:#ffffff;stop-opacity:1" />
    </linearGradient>
    <linearGradient
       id="linearGradient3392"
       inkscape:collect="always">
      <stop
         id="stop3394"
         offset="0"
         style="stop-color:#994433;stop-opacity:1;" />
      <stop
         id="stop3396"
         offset="1"
         style="stop-color:#994433;stop-opacity:0;" />
    </linearGradient>
    <linearGradient
       id="linearGradient2867">
      <stop
         id="stop2869"
         offset="0"
         style="stop-color:#ff9000;stop-opacity:1;" />
      <stop
         id="stop2871"
         offset="1"
         style="stop-color:#ff9000;stop-opacity:0;" />
    </linearGradient>
    <linearGradient
       id="linearGradient3446">
      <stop
         style="stop-color:#ffffff;stop-opacity:1;"
         offset="0"
         id="stop3448" />
      <stop
         style="stop-color:#ddb58d;stop-opacity:1;"
         offset="1"
         id="stop3450" />
    </linearGradient>
    <linearGradient
       id="linearGradient3588"
       inkscape:collect="always">
      <stop
         id="stop3590"
         offset="0"
         style="stop-color:#994433;stop-opacity:1;" />
      <stop
         id="stop3592"
         offset="1"
         style="stop-color:#994433;stop-opacity:0;" />
    </linearGradient>
    <linearGradient
       id="linearGradient3524"
       inkscape:collect="always">
      <stop
         id="stop3526"
         offset="0"
         style="stop-color:#ffffff;stop-opacity:1;" />
      <stop
         id="stop3528"
         offset="1"
         style="stop-color:#ffffff;stop-opacity:0;" />
    </linearGradient>
    <linearGradient
       id="linearGradient3516"
       inkscape:collect="always">
      <stop
         id="stop3518"
         offset="0"
         style="stop-color:#ffffff;stop-opacity:1;" />
      <stop
         id="stop3520"
         offset="1"
         style="stop-color:#ffffff;stop-opacity:0;" />
    </linearGradient>
    <linearGradient
       id="linearGradient3215">
      <stop
         style="stop-color:#ffffff;stop-opacity:1;"
         offset="0"
         id="stop3217" />
      <stop
         style="stop-color:#ddb58d;stop-opacity:1;"
         offset="1"
         id="stop3219" />
    </linearGradient>
    <linearGradient
       id="linearGradient4756">
      <stop
         id="stop4758"
         offset="0"
         style="stop-color:#a17448;stop-opacity:1;" />
      <stop
         id="stop4760"
         offset="1"
         style="stop-color:#f3e4d6;stop-opacity:0;" />
    </linearGradient>
    <linearGradient
       id="linearGradient3280">
      <stop
         id="stop3282"
         offset="0"
         style="stop-color:#e6c7aa;stop-opacity:1;" />
      <stop
         id="stop3284"
         offset="1"
         style="stop-color:#ddb58d;stop-opacity:1;" />
    </linearGradient>
    <inkscape:perspective
       id="perspective10"
       inkscape:persp3d-origin="372.04724 : 350.78739 : 1"
       inkscape:vp_z="744.09448 : 526.18109 : 1"
       inkscape:vp_y="0 : 1000 : 0"
       inkscape:vp_x="0 : 526.18109 : 1"
       sodipodi:type="inkscape:persp3d" />
    <inkscape:perspective
       id="perspective2447"
       inkscape:persp3d-origin="372.04724 : 350.78739 : 1"
       inkscape:vp_z="744.09448 : 526.18109 : 1"
       inkscape:vp_y="0 : 1000 : 0"
       inkscape:vp_x="0 : 526.18109 : 1"
       sodipodi:type="inkscape:persp3d" />
    <inkscape:perspective
       sodipodi:type="inkscape:persp3d"
       inkscape:vp_x="0 : 526.18109 : 1"
       inkscape:vp_y="0 : 1000 : 0"
       inkscape:vp_z="744.09448 : 526.18109 : 1"
       inkscape:persp3d-origin="372.04724 : 350.78739 : 1"
       id="perspective2471" />
    <radialGradient
       gradientUnits="userSpaceOnUse"
       gradientTransform="matrix(1.1898711,4.8024061e-8,-1.0571558e-7,1.0401962,-170.88388,-336.84099)"
       r="200.01021"
       fy="426.02014"
       fx="218.19295"
       cy="426.02014"
       cx="218.19295"
       id="radialGradient3286"
       xlink:href="#linearGradient3215"
       inkscape:collect="always" />
    <radialGradient
       gradientUnits="userSpaceOnUse"
       gradientTransform="matrix(1,0,0,0.06168831,0,367.48573)"
       r="220"
       fy="391.64569"
       fx="41.42857"
       cy="391.64569"
       cx="41.42857"
       id="radialGradient4762"
       xlink:href="#linearGradient4756"
       inkscape:collect="always" />
    <radialGradient
       r="200.01021"
       fy="426.02014"
       fx="232.97156"
       cy="426.02014"
       cx="232.97156"
       gradientTransform="matrix(0.868468,2.5562453e-8,-1.2226792e-8,0.4153974,13.94245,-100.66411)"
       gradientUnits="userSpaceOnUse"
       id="radialGradient3221"
       xlink:href="#linearGradient3215"
       inkscape:collect="always" />
    <inkscape:perspective
       sodipodi:type="inkscape:persp3d"
       inkscape:vp_x="0 : 526.18109 : 1"
       inkscape:vp_y="0 : 1000 : 0"
       inkscape:vp_z="744.09448 : 526.18109 : 1"
       inkscape:persp3d-origin="372.04724 : 350.78739 : 1"
       id="perspective3461" />
    <linearGradient
       gradientTransform="matrix(0.9981597,0,0,1.0011501,11.089078,131.47629)"
       gradientUnits="userSpaceOnUse"
       y2="817.66937"
       x2="863.5"
       y1="619.57654"
       x1="863.5"
       id="linearGradient3522"
       xlink:href="#linearGradient3516"
       inkscape:collect="always" />
    <linearGradient
       gradientTransform="matrix(0.9981597,0,0,1.0011501,11.089261,154.89933)"
       gradientUnits="userSpaceOnUse"
       y2="616.73065"
       x2="857.01343"
       y1="434.31458"
       x1="857.01343"
       id="linearGradient3530"
       xlink:href="#linearGradient3524"
       inkscape:collect="always" />
    <linearGradient
       gradientTransform="matrix(0.9981597,0,0,1.0934546,11.089261,-131.25714)"
       gradientUnits="userSpaceOnUse"
       y2="78.374817"
       x2="860"
       y1="367"
       x1="860"
       id="linearGradient3594"
       xlink:href="#linearGradient3588"
       inkscape:collect="always" />
    <radialGradient
       r="200.01021"
       fy="426.02017"
       fx="230.14203"
       cy="426.02017"
       cx="230.14203"
       gradientTransform="matrix(0.8252215,0,0,0.4628272,25.966778,-273.07293)"
       gradientUnits="userSpaceOnUse"
       id="radialGradient3638"
       xlink:href="#linearGradient3280"
       inkscape:collect="always" />
    <linearGradient
       y2="78.374817"
       x2="860"
       y1="367"
       x1="860"
       gradientTransform="matrix(0.9981597,0,0,0.9940497,11.089238,635.22076)"
       gradientUnits="userSpaceOnUse"
       id="linearGradient3754"
       xlink:href="#linearGradient3588"
       inkscape:collect="always" />
    <linearGradient
       gradientUnits="userSpaceOnUse"
       x1="30.059999"
       y1="30.059999"
       x2="225.94"
       y2="225.94"
       id="RSSg">
      <stop
         offset="0.0"
         stop-color="#E3702D"
         id="stop3819" />
      <stop
         offset="0.1071"
         stop-color="#EA7D31"
         id="stop3821" />
      <stop
         offset="0.3503"
         stop-color="#F69537"
         id="stop3823" />
      <stop
         offset="0.5"
         stop-color="#FB9E3A"
         id="stop3825" />
      <stop
         offset="0.7016"
         stop-color="#EA7C31"
         id="stop3827" />
      <stop
         offset="0.8866"
         stop-color="#DE642B"
         id="stop3829" />
      <stop
         offset="1.0"
         stop-color="#D95B29"
         id="stop3831" />
    </linearGradient>
    <inkscape:perspective
       sodipodi:type="inkscape:persp3d"
       inkscape:vp_x="0 : 64 : 1"
       inkscape:vp_y="0 : 1000 : 0"
       inkscape:vp_z="128 : 64 : 1"
       inkscape:persp3d-origin="64 : 42.666667 : 1"
       id="perspective3848" />
    <linearGradient
       gradientTransform="matrix(1,0,0,1.0309529,-0.28125,-12.897311)"
       gradientUnits="userSpaceOnUse"
       y2="659.00128"
       x2="294"
       y1="277"
       x1="294"
       id="linearGradient3444"
       xlink:href="#linearGradient3446"
       inkscape:collect="always" />
    <inkscape:perspective
       sodipodi:type="inkscape:persp3d"
       inkscape:vp_x="0 : 526.18109 : 1"
       inkscape:vp_y="0 : 1000 : 0"
       inkscape:vp_z="744.09448 : 526.18109 : 1"
       inkscape:persp3d-origin="372.04724 : 350.78739 : 1"
       id="perspective2850" />
    <linearGradient
       gradientTransform="matrix(1.0212766,0,0,1,-10.787234,0)"
       gradientUnits="userSpaceOnUse"
       y2="-105.31557"
       x2="749.5376"
       y1="78.500679"
       x1="749.5376"
       id="linearGradient3398"
       xlink:href="#linearGradient3392"
       inkscape:collect="always" />
    <inkscape:perspective
       sodipodi:type="inkscape:persp3d"
       inkscape:vp_x="0 : 526.18109 : 1"
       inkscape:vp_y="0 : 1000 : 0"
       inkscape:vp_z="744.09448 : 526.18109 : 1"
       inkscape:persp3d-origin="372.04724 : 350.78739 : 1"
       id="perspective3751" />
    <inkscape:perspective
       sodipodi:type="inkscape:persp3d"
       inkscape:vp_x="0 : 526.18109 : 1"
       inkscape:vp_y="0 : 1000 : 0"
       inkscape:vp_z="744.09448 : 526.18109 : 1"
       inkscape:persp3d-origin="372.04724 : 350.78739 : 1"
       id="perspective3819" />
    <inkscape:perspective
       sodipodi:type="inkscape:persp3d"
       inkscape:vp_x="0 : 526.18109 : 1"
       inkscape:vp_y="0 : 1000 : 0"
       inkscape:vp_z="744.09448 : 526.18109 : 1"
       inkscape:persp3d-origin="372.04724 : 350.78739 : 1"
       id="perspective3886" />
    <inkscape:perspective
       sodipodi:type="inkscape:persp3d"
       inkscape:vp_x="0 : 526.18109 : 1"
       inkscape:vp_y="0 : 1000 : 0"
       inkscape:vp_z="744.09448 : 526.18109 : 1"
       inkscape:persp3d-origin="372.04724 : 350.78739 : 1"
       id="perspective2703" />
    <inkscape:perspective
       sodipodi:type="inkscape:persp3d"
       inkscape:vp_x="0 : 526.18109 : 1"
       inkscape:vp_y="0 : 1000 : 0"
       inkscape:vp_z="744.09448 : 526.18109 : 1"
       inkscape:persp3d-origin="372.04724 : 350.78739 : 1"
       id="perspective3494" />
    <inkscape:perspective
       sodipodi:type="inkscape:persp3d"
       inkscape:vp_x="0 : 526.18109 : 1"
       inkscape:vp_y="0 : 1000 : 0"
       inkscape:vp_z="744.09448 : 526.18109 : 1"
       inkscape:persp3d-origin="372.04724 : 350.78739 : 1"
       id="perspective2724" />
    <inkscape:perspective
       sodipodi:type="inkscape:persp3d"
       inkscape:vp_x="0 : 526.18109 : 1"
       inkscape:vp_y="0 : 1000 : 0"
       inkscape:vp_z="744.09448 : 526.18109 : 1"
       inkscape:persp3d-origin="372.04724 : 350.78739 : 1"
       id="perspective3989" />
    <linearGradient
       gradientTransform="matrix(1.0089286,0,0,1.7948717,-766.78567,337.69227)"
       gradientUnits="userSpaceOnUse"
       y2="330"
       x2="834.33624"
       y1="305.625"
       x1="834.33624"
       id="linearGradient4140"
       xlink:href="#linearGradient4134"
       inkscape:collect="always" />
    <inkscape:perspective
       sodipodi:type="inkscape:persp3d"
       inkscape:vp_x="0 : 526.18109 : 1"
       inkscape:vp_y="0 : 1000 : 0"
       inkscape:vp_z="744.09448 : 526.18109 : 1"
       inkscape:persp3d-origin="372.04724 : 350.78739 : 1"
       id="perspective4015" />
    <filter
       height="1.2805612"
       y="-0.1402806"
       width="1.0522988"
       x="-0.026149396"
       id="filter3534"
       inkscape:collect="always"
       color-interpolation-filters="sRGB">
      <feGaussianBlur
         id="feGaussianBlur3536"
         stdDeviation="2.0106887"
         inkscape:collect="always" />
    </filter>
    <linearGradient
       gradientTransform="matrix(1.0089286,0,0,0.8860759,-767.7947,602.1519)"
       gradientUnits="userSpaceOnUse"
       y2="409.50003"
       x2="865.0708"
       y1="435"
       x1="865"
       id="linearGradient3659"
       xlink:href="#linearGradient3653"
       inkscape:collect="always" />
    <radialGradient
       r="15"
       fy="585"
       fx="875"
       cy="585"
       cx="875"
       gradientTransform="matrix(1.7692319,1.4333429e-6,-1.4780095e-6,1.5730521,-673.07704,-335.23675)"
       gradientUnits="userSpaceOnUse"
       id="radialGradient5758"
       xlink:href="#linearGradient3569"
       inkscape:collect="always" />
    <linearGradient
       y2="385"
       x2="865"
       y1="430"
       x1="865"
       gradientTransform="matrix(0.7689236,0,0,0.688,204.76563,134.72)"
       gradientUnits="userSpaceOnUse"
       id="linearGradient3648"
       xlink:href="#linearGradient3489"
       inkscape:collect="always" />
    <linearGradient
       y2="817.66937"
       x2="863.5"
       y1="619.57654"
       x1="863.5"
       gradientTransform="matrix(0.9981597,0,0,1.0011501,-248.91071,261.47629)"
       gradientUnits="userSpaceOnUse"
       id="linearGradient3658"
       xlink:href="#linearGradient3516"
       inkscape:collect="always" />
    <linearGradient
       y2="433.95667"
       x2="880.25104"
       y1="410.65714"
       x1="880.38794"
       gradientTransform="matrix(1.0512532,0,0,0.8139535,-806.01058,544.2442)"
       gradientUnits="userSpaceOnUse"
       id="linearGradient3528"
       xlink:href="#linearGradient3523"
       inkscape:collect="always" />
    <linearGradient
       y2="433.95667"
       x2="880.25104"
       y1="399.48212"
       x1="880.25104"
       gradientTransform="matrix(1.0512532,0,0,0.8139535,-346.01062,-25.755803)"
       gradientUnits="userSpaceOnUse"
       id="linearGradient3532"
       xlink:href="#linearGradient3523"
       inkscape:collect="always" />
    <linearGradient
       y2="789.5802"
       x2="895"
       y1="772.02295"
       x1="895"
       gradientTransform="matrix(0.9436842,0,0,1.0130434,44.276298,-37.62824)"
       gradientUnits="userSpaceOnUse"
       id="linearGradient3589"
       xlink:href="#linearGradient3543"
       inkscape:collect="always" />
    <inkscape:perspective
       sodipodi:type="inkscape:persp3d"
       inkscape:vp_x="0 : 0.5 : 1"
       inkscape:vp_y="0 : 1000 : 0"
       inkscape:vp_z="1 : 0.5 : 1"
       inkscape:persp3d-origin="0.5 : 0.33333333 : 1"
       id="perspective3221" />
    <inkscape:perspective
       sodipodi:type="inkscape:persp3d"
       inkscape:vp_x="0 : 0.5 : 1"
       inkscape:vp_y="0 : 1000 : 0"
       inkscape:vp_z="1 : 0.5 : 1"
       inkscape:persp3d-origin="0.5 : 0.33333333 : 1"
       id="perspective3260" />
    <inkscape:perspective
       sodipodi:type="inkscape:persp3d"
       inkscape:vp_x="0 : 0.5 : 1"
       inkscape:vp_y="0 : 1000 : 0"
       inkscape:vp_z="1 : 0.5 : 1"
       inkscape:persp3d-origin="0.5 : 0.33333333 : 1"
       id="perspective3282" />
    <inkscape:perspective
       id="perspective3215"
       inkscape:persp3d-origin="0.5 : 0.33333333 : 1"
       inkscape:vp_z="1 : 0.5 : 1"
       inkscape:vp_y="0 : 1000 : 0"
       inkscape:vp_x="0 : 0.5 : 1"
       sodipodi:type="inkscape:persp3d" />
    <inkscape:perspective
       id="perspective3219"
       inkscape:persp3d-origin="0.5 : 0.33333333 : 1"
       inkscape:vp_z="1 : 0.5 : 1"
       inkscape:vp_y="0 : 1000 : 0"
       inkscape:vp_x="0 : 0.5 : 1"
       sodipodi:type="inkscape:persp3d" />
  </defs>
  <metadata
     id="metadata7">
    <rdf:RDF>
      <cc:Work
         rdf:about="">
        <dc:format>image/svg+xml</dc:format>
        <dc:type
           rdf:resource="http://purl.org/dc/dcmitype/StillImage" />
        <dc:title />
      </cc:Work>
    </rdf:RDF>
  </metadata>
  <g
     style="display:inline"
     id="layer1"
     inkscape:groupmode="layer"
     inkscape:label="formes"
     transform="translate(0,-860)">
    <image
       y="290"
       x="760"
       id="image4017"
       height="160"
       width="226"
       mask="none"
       transform="matrix(1,0,0,0.875,-760,606.25)"
       xlink:href="data:image/png;base64,iVBORw0KGgoAAAANSUhEUgAAAOIAAACgCAIAAACe4ifnAAAAAXNSR0IArs4c6QAAAAZiS0dEAP8A /wD/oL2nkwAAAAlwSFlzAAALEwAACxMBAJqcGAAAAAd0SU1FB9kEHQ8XCkAc5HAAACAASURBVHja 7b1bUBt3ti/c3MTdtMCAAIFaROKOkRxs4yQYyU7G2JkdpC/He+zJrkJ62Hvsmgehh3N25mGKqM7D mZyqr4QeUpOcU3UkqvaMv2xXDsKZ+JIJlmQS22BsScbcLBm1AIMMBjXmLnz5Hpb9d0cSkpAEJsn8 a2oqyC211L16/ddvrd/6rZjZ6TGMtnqvXnrz7cZsVqFKpaqpqZFIJGKxuKOjA/6fIAg47OK5LyqE b6dnZGC/7NXf103w93B4VYEP6zqvY3NLs1ns8M7yZN1z7crX7//zmQRGIoZh6541s2Xx7FkSwzAe L/33vy+Bw6i56RuGzv2HGn9CF3DGNTHhGFlcmOdVCLn8mpS0VxYll8ubm5tFIpFUKo31elthcanT 1o9hGIfDsVqtGIY1NzeLxWIcx5GNYhhWxCufIIewX/xisbmk7U7Qw3gVtY8eToR9lvgERjargLT3 w58JjMT79xd8D8Mzc54/e7b42L3zr9uTdc/ocP+1K+ddEw5eRW3TR4pK4SG6jWIYVlNTo1Kp2tra cBz3NtPs3IIJ5711z5pMJqMoSigUSiSS5uZmg8FAP6yk8sCM68GTdc8v3EyzWeyFx+7lxfnAh+UX 8R89nIzkcu3OZY/Z76I/T50i9u/PwjAsM5PxoxNx3pgad+zkK0bNTg9Zb1w3/A3DsHfeO9Fw7Le+ exFJkhiGWa1Wi8Uik8m0Wm2M16aPYdiQ9UZOPpdfURv4fH3dF5LT0vLY3F+4pY4O9yckMmr2vxv0 ciUkMgq5pWGf6NqV84ff/xe6yzl7lszMTDx6NA+9srw4f+Wb/3jr8Ac70H3OPHwwPjry/NkzXuWb BK8aAhivpdPp2tvbKYoiCKKjo0MulxME0draGut7KJsotw/cCnpiDr96fHTkH/t+PqeYtA0E3/cr a8cdEV2u7Fy2w2alv3LqFPHGG2n0V1LSMpKTU2dcEzvn+qyuLNkGbl+78vX83OybbzceO/E7fkWt l42C+8QwTKPRGAwGg8FgsVja2toUCoVOp8MwzI+ZpmdkxMTGzrjG/XhsioJwAcOwbFbh82fPFubn f+FmmpScimdmO2k7st+FZ+YkJ6dSs9NhnyivkDtm98YDPF661ytFvKpI4uDowiPz9a6b3ZfTMpi/ ksjfOiLNZhX6PVKpVII5AnKSSqWtra0SiUQgEBAEoVKpYv2+rbC41DbQR7dO+BS5XE6SpMlkUiqV GIbxKt/8B5DCMGw3ix0ikJqaGA37LGm7mE+fPaHmghg6wauecT3Y4fAIllQqNRqNANM1Gg1YWk1N jcFgkMlkUqkUwzC1Wk1RVPwG+0uBbeD28uI8fLpUKhUIBPApHR0dFEVxuVyFQkHwqgduf8+v8MQn MH7JZprH5tIvVwAgZenpWl1ZSkpODe9EhdxS+0Bfbf3xAMckMBJz8jhTE47thw2Lj93jjpFHDycL ivjvvHcCz8zxPQa2Yo1GYzabm5qaNBqNSCSSSCRKpdJisajVaohHrVarSCTCMEwgEAgEgtgAGRCI hEiSNBqNarUa/sliseA4LhAISJJMYCSyOSVTEw7sF7/y2Fzb4M3AxyQwEguK+JPO8B1qNov9YMwW 9LACDv/R9oanUxOO3quXBm5fz8nnHj9xurb+uF8blcvlGIYRBEFRlF6vl0gkRqMRAlOJRKLRaCQS SUdHh9Vq5XA4yOSc9rvxG52YTZQPmn+oFB6ip0vhBBRFkSSJ4zgAqR7T+UgA7M9jFRaX3uy+HBTv VwjfvvLNfxSXVYcdB6elZ0yO2fKL+EHd9pP1Ld/lVleWxkdHpiYcOXmcPftEfr+VTqdzOp3Nzc0E Qeh0uufPn2MYhuO4UqmUyWQymUylUmm1WjhSq9WKRCLwo8uL8w6bdcw+xEhMjN3oGwCQmhwbxjBM JBKBr8ZxnKIoDMNaW1shDMhmFcbFxkeCDH42QCotPSMokEpJy0jfxYxk/2EVFpO2u6G47S3d5WZc E/193Te7LyelpAI8yi/i6/V6qVQqFosRHlIqlU6nk8PhiMVii8VCEITFYgGLslgsRqOxtbWVJEku l9vc3AwWjGHYjGu8r/vCt3otNfuw5kCD8OARP3lTuiefn5t964jUYrGIxWKBQGCxWMxmM92/Yhhm G+ybnnSU19T9wi11asLxyDXRcOy3gQ9z2u/aB/uEB4+EDVCuXv6q6SOF37wjWpNjtjs3jVEvnD5Z 90xNOMYdI8nJqbyKWsjMUxSl0Wh0Oh1BEM3NzTiOy+Vyg8EgEAhiYmLA+Nra2kwmE5gQgjcSiQT8 KKx1z9rkmM0+2LeyslTILc1jc9FuEMhMoZT8K4k8JS2DoiiLxSIQCIxGI4QOMpkMffo3//nntw7/ 0y8cSGH+MvB+18VzX9QcaAgbSIVIJIjwLH7h0dS4g+BV8SprvUJPLpfb2tqKTEIoFKrVapFIxGQy HQ4HbMJMJvP58+dKpRLQvVqtlkql8K/Li/O2wZukbQDPzC7kluJZ3nFtIDPFMGzIegPPyq0UHoKH RiwWkyQpEonAoaIgN/ISy89jjQ73YxgWGIljGDZgvkrNPgx7/5lxTbgmHEHdtrX3u/U1T9hxMH2X CFo9UqlUJElqtVqLxQL/bTAYwK1CGQncp9vt9kJUNTU1//z/vN979Rs2pySfU7zRQxUb+CtyS6pR SlmlUgkEArPZjOO4Wq2GZwIWh18dYYnl57HyOcUPxmzrnrXAh0XIiMhmsd2z00GJBBzeHtdk+OEp VI+uXv5qfm52zz6R3+oRWgqFQq/XC4VCqVQK8BpiULVardfr5XI5+Ff6/u6031Wr1S0tLSlpGYeO flhcVh3A8ccHRQaMxMTJseH8ojKSJBUKBUEQkKICLPXywr0AUr7u+pcGpHbn5k+O2QLvyCiRF/b+ k80qeDBmC8y7wDNz4mLjFx+703YxN/Xh1Oz0uGOEmpsh+JUQ8kFeEmESkiRJkhQIBJDtAWwtkUgw DINY02g0yuVyiUTS2tpqNpshoQkHz7jGnbb+Cee9bFZBekbG3MxCKF8pNjRoOQRPjEajMRqNzc3N UqmU/nBAqiWSEsvPKIFaPGj+IehhEe4/hdzSUHgXvMo3Qz/Lk3XPuGPk2pXzjnv9BH/P8ROna/a/ Czaq0+lUKhVKMMnl8vb2drFYTH97c3Mz2mBFIhHsupATFYlEqSnJTvvdrvO6HtP5hETGW4f/aVMx T5DYFNbVy1/BU6XX661WK4Qa8I1lMhk8JeuetQvnPj8o/vU/gNS1K+cPNHzgVb9e96x57Zhd53Xc kuqw959rV85vVOlBa3lx/lu99tDRD0OBRzOuB2xOCYdf7Vt5h8gSkjxMJhNCTC6Xq1arwYl6ISev 7xAYHoWy4v79vyqDHrSyvLyy8jgnj1NWViYSiYxG46effnrq1KnLly+XlZVBAjUuLn5xfm55eSGD ufsXbqbxCYzJsfuFxeX0Fz//fDQzk5GZ+cpS4+Lix+4P5uZzwowdl5eWFtysguKA0UXSwwejsbFx qWm7NoJH9oHbrgkyl00cFEsKi8tT/aUpkpKSRkZGnE6nSCQqKytbXV09deoUQRAmkwmhewzDWCxW UlISig0mx2z9fVfv9BnT0vCyPfsKOLyklDDTDiF509WVJWuP6diJ38ETQ1GUQqEAPyoUCs1m84tn bm76+7+f24Fkx21e9EQeevGzz+49eLAskRQCnRntP/vqj4aXM6LflMBp2glyyGuHRdUjZlYOv3Jf 4JoWikfFYrHD4YD/MBgMwJo3m83gp+j7Bmnvtw/ciomNLSwujQq1IDaUgwBIQYmlo6PD4XC0tLTA Xg+ZVBSzR8hV+9l40zw214sbimHYysrTs2fJ3t5ZBKQIfmXYJf6k5NSY2NjJYCX+/CL+1Lhj8bF7 xjVhG7htvt519fJXqHrUcOy3YKNKpRKRPnU6nVAoFAqFgNZhEQQB1U44jCRJjUbzySef0I+h5qb7 ui90/kUzPemo3Htw/6HGaNFf4kM8jlVYTNrucHhV9BKUTqfT6/UKheJVzF5RO0EO/cLxPvayxA/5 ZvpKTo67f38BOVR+xb5v9dqwU5t5hdxJZ5D6fgIjMb+Ib75hyGYVZecVFpftxTNzfPNKOI5Dbd1i sbS3t5vNZig9QvodgaT29nZg2Wk0GoVCgcJQKK1B9ejQ0Q+jjk9CNVNfrppOpwM6Ft1wI+eq/Wwy U1DiR5mpubk1Hi/dbl84dgxHh6WkZTCzcsIm3eWxudcNf6vxAWdea1/98cAH6HQ6oCyp1erOzk6B QNDW1tbe3t7S0kI/DKyToqjW1lZfeBRJ62x0Nn1YOXkcxFVra2uDfgCv+n7kXLWfzWJzS+lc6T/+ sfqjj3IwDLt4kaIfxq/c5xoP83KtriwlJqUE3fcD2yiwQxoaGjAM0+v1TU1N0MxpNpsVCgVQ79CC NBPAo2tdHd/qtavLS/vqj1bX1m+djW7Cm2IYRvDLgatGkqRSqRQIBFKpFGr9BEE4HI6Xubra7/9+ LvIa3U99ZbPYtsHb1Nw0yhnhOL5/f1Z/P3Xq1I9iR2vPlc0m4VEBM5tVGNgKg662tjY6uc5sNotE IqfTib2sOwaAR2V7arfnYoaE9F89TNe7EC8mwIpQPeFns3xL/Hb7wmef3UPty7BCL/HT+Z0Ev4oe lUJlCBjrG+3s0MgBTZvodS6X29HRAe+KiYkBZhMgKpFIhPZ3am7aPtBH2u/mFXILuaWbrWxt36aP gJTv6yqVSq/X04GU6x+UfgwreqPUq8TP46VnZjJu3pylHxZKid8vvxPDMKPRKBaLmUymWCxWqVRi sRhuBALgcrkcXlGpVAaDAXZtxAeFiBMqTBRF4Tje3t6O47hWqzUYDGCjTvtd08W/fv/3cwmJjENH PyyvqdtmG920meaxuUg9gaIoqVTK5XKNRiOHw4E6KtrIqLmZ1ZWlf2SmdufmI7USWEeP5tvtC3b7 Aj123KhX52X38HnXhIPg72n6SIEKmLCg58dsNjscDoPBoNVq29vbIeKE21FTU2MymZDJisViMEf0 CWCLQqEQ9Jfo8GjAfLXzLxr7YB+LzX3r8AeF3NLXVWKM3+wb8tjFtsGbNfvfhefVYDCIxWLI8apU KshQICD1jwg1j1080t9H54gIBWmXLzPm5n7kO716dUB8wTU+urgwT/ArA3BYRSJRe3s7AFmKojo7 O1E+22KxiEQigUDQ2dkJ/4pSSCqVil7kpMcAGIbNuMZtA33TU848Njfs6sPrNtNCLgApuDQEQajV aqVSSSdM/QNIvcpHZuWA6AEqlCcwEv/4x2ofvFUIMhDJKalQXs/J45QL3g5aHwJzlMvlFovFYrEg PnxDQwNklEQiEXBEIJ0E27rfj/KCR7zyPTuHnrFpM0XqCQSvqrm5WSgUwpMqk8noeX48Myd9F3PG NfEPIAWiBxspKdADevON7xITk3mVbwrrfhW0BYDuUIEBTJKkSqUyGo0gxCCXy6G5EkJYtVrd1tam UqkaGhq8EqJArgN4VFpduwOrM/FhvAdk6FBFCur7cC0sFgu6BAR/D2m78w8z9RI92GhxeFUpaRlB rdmvQ8VxHHW1Q/QJTZtcLlcmkyHFz5aWFnR31j1r1Nz09JRjzD709NmTLaoevZ6EFFr0ph/QRKEn O1CE3vkXzQ4Jbl7vsg3cTstg+tZOo7L0en17ezuKL6HNQ6vV0nES3XEOmrupuZnnz5+n78LTdjHz Crnbj9y3FunTkQGQf/V6PZfLtVqtQEnRarX0ukUk1Iqf2b5vHzRv0Yd7JUoFAgHdU3itBEaie3b6 oPjXh45+KDx4hF+5d+fbaARmWsiFjKBIJALrhIsF/SfoMH7FvkjacX42Kyk5NTEpJWgXf3jLK10f BNJl5qTvwt0/NRZbfNjXHc/Mpjf9gDIltBeiw0A94ZcMpBAxPiePE2FVc6MFCH3SeQ8KBEc+kAXF ahPk0E/rjsSH/U4Wm2sf7OPwqkiSFAqFIpFIoVDQs3EISNkH+35pZrq6sjTpHHVNOpKTU4t4VZtC 7qEvrwJmfELCnb5uOovA79o26Z7XD6EQkIJ2HHrboe/65QApuiZyPucNDm9PYIsJ231upA4SolDA T05XIT6SN+exi0HHMICNApAaHx3hV+79hWzuG4l+Rct9PhizbcTvzOcU3+y+HJS2xOFX3/rh0i/G TKEiFYyWCxz1n6WZ0t1nEa98izZ3VB+CBGeArQkVX7xYbGfPkqdOvXIloPQdRgv/T9JMfYGU3xUh R/2X7D4nx2yTThuIL4RYHwLpavodsdsXentn5+Y8//avr2ActPD/VATq4iN8fyG3FIBUkKQJf499 sO9nYKbb4z6RtCeU1zclI7eRdLXdvvC//rcTWWpBEf8npPQdqZniWTkrK0tB0SWHV/VT75HaHvfp tN8lbXfcs9N5bG7l3oPhbcrQ1+pb9HrwYNlsWdy/PxG2uJw8zszDBz8J3xGSnETQ9WhqPJ8T5Lat rS7OTU9l5eT95Ax0asIxZOmZnhzPZRO1bzcWlwnSM7JCeaPFYgHdDRaLtRGpHmGjkf7rPcavV1cW d7PYVXvfysrJYyQmh/eFE5OS7ANmfmXtSz+6uLr6dGXlaXU13tiY/+rex8eT9+7kFRbv/FsQG/lH 5LG5ocjQ8Sv2/bRU+n0l6TaayOFtcxQFre5SqRTH8ZaWlo24c8uL87bBvq7zuu//fm59zQO9b5G7 t7RdTHoL//79Wb//fUl1Nd7f/yOyZX4Rf3Fh/ifBXo+CN42Ni1tenI+JiQ287ycwkuZmptbX19J3 PLoEyZpJ5/3s/MJNuU8Mw1Qq1bFjx5hMJovFAjKuSCRSKpUnT55EdfZ1z9qEY3jQ/MOdPiP2/Cm3 pPqNMgFzd24Uw8TYuDj3jIu+xSUnx1279igzM7GgIOUnt8XFR+VT8tjFvkDKd1Qhwa8asvywY4Mh ekNcKJRkv6uhocHtdiN9ZBBMlMlker2+paWFnvhksblb15mZnVtw1fJVzYEjr6D9yzYsercgv2Lf lW/+Y+fnCmOj8ikApHwH85lMD712Gc/a2g7cZaYmHObrXdYeE5oHFzZCApIy+hP4jTiOQ0vx8uK8 a9JxUPzrLW9sT2DkFXK92rD2799tty/Q+yx24PDILYRQsOamp4LuMh7P8iPXxA7ZZVZXlhz37g6Y r8XHM/iVtXvf+lVOHieBkRSVD//DH/5QVlam0+kuX75sNBr/x//4HywWKz0j6/6QOSe/cBvSQAkJ DKftbnHpK+i2e/dTk8m9shJbXf3qQYqLi58gR8IWBvwpeVMAUjDhHL3it9mXy6/ZCUAqiu7T7zIa jaB1YzabW1tbofn9xZbCeWN7RhKjXOGrV3Ccx0v36haENuAdPnM+at40Ni5ueenx+ronK/tVymN1 9Vlv72xdXUpSUtJOAFKrK0tj90f6b33//NnT4jJhbf3xKLpPwEbPnj6Ni4uXSqV//vOfy8rKcBwn CMJoNJaVlcExuzKyrL0GDq9ie36yV66wpCTu0KGCH1nAT0GYNjaKn5XHLvZS2j4szsR8VJMIftX2 TzinZqdBjiEhkQGCiUErZ5taMHGr8y8aCAdhWhyoGHG5XBjugcJBKB1vw6/2HR7pl9W/8yd8RNNM 8aycp8+e0IFUAiMRVJMuX55Cup75RXzgPWzDzwugJx8t92kb7Lt47otbP1xKTkurrq2HB1UgEEDq FMMw0Br50UxN/p7tmSka4hB1mPCxPXfkdSak0Crkljpt/ag90m5fmJvzrKw8vXRpkl7/KOKVbzXv gT5uy1cJPyruE03koFc1bYO3oSu/vb1dq9UinjjIk4CxbmfpGLUBBz5shzNRomymeWzu1cs/StfN zb0AVW+8kUYHUt8OaLeI90Aft7X/0AfRbe3w0lzwJYWgB1WhUIAGCQjbUhSl1WqRTw1PFWZ1ZWnG NfHINUFvZmJm5bAKizfKRmez2EPWnqDt1zt85nxE7H2/a8h6Iyefi+Ro1j1r/+t/O+32hd//voTH S0eHXevqyMjMimKqP4BaXRTdZ1BJuifrnuuGvx0/cTqBkSgWi41Go0wma25u9prvEcacgnHHyLhj hJXPzefw6b9ucsxmG7i58NhdUVPnl+lnG7idlJIadDp11O/ITkT6aCWnpI7c6UW8h7i4eKEgzUGu 8HjpP5rjER9vG7hVwOFFw4AmRoetoyN3drMK9te/v6naZijuc3TE0mv8epwcYu7Ordr7Vm4+JwAp JDYu7rH7UVx8Ap6Zg+P4559/fvLkSaPRqNFoTCZTXV0dJD2SklPHRweTU9JCHO4xZL3x2D176Ohv OPxqr1+XnpFF8KvTdjHNN7piY2N9AXtq+i46E2VDU4jeHYn+ph/11i3gPXipJv3bv3KWlle80nVh yM96+S3facRb5D43JVmDmhklEgmM+6AoSiAQNDU1SaVSg8HwIhwMeU6BbeD26vLSocZTAQKY/CL+ e02y61c6fOeUomESgXcYuCM7k2wZax+6E/UPLSwuddp+VKZLYCT6pkI2NQPOCx4NWW9cvfzV+prn nfdOHPlAFl0bBfAO8+BA0XNTskrZLPbKyhLIa+p0OolE4nA4KIqSSCRooDz2csZI0Lz61IRjbsYV 2EZRqutQ46kZ17jXMBn4k7QFVwnYttLDps10xjW2MD8f5XRdboFXRWqjsH1TE2bBffZevTRw+3pO PrfpI0Vt/fGtaN0cs9/N57wRiaInK5+L5hTU1NRAiqqtrc1oNCIUlcBIJHhVgROoT9Y9toHbB49I QwSCCYzEmgOHB603UDhkvt410t9XXnPwrSPSoG/n8PbMPNyJ9f24/1etHrj9Q3QjEr8VKT/njotf nJ/zhFCRguL7kLUnPp5R9eahmgOHs7Lz4+Lit+qixMW7JkYjKXMnp6YNmq+X7akrKyuTSqXz8/O/ +93vzpw5o1ar6fzohMSke3f7Alx80jaYlZtH8DaREEjPyHr08MHU+P37w9b1tVUotoX4MEPEnJ7B DJuRvVXeNL+oLDkl1XEvyroxIc5+5fCrA+8y4A9udl9GxfeoZ0Dpy2KxkCQZudo1GriD47jBYMjI yMBx3OFweMltoA7PjT5n3j2dzdr00yI4cDiBkXyg4YMwim1FvKodWJGKxTBsX/37UxOj0eXXeRHI Nw7j/N+nJ+ue0eF+EPPmVdQ2faQIkTkf9tLpdGKxGBTsI5x/92LfLyx+4LRhGEYQBBpK6LsCB+jr 6+th/OqUtIywn+eCIv6M68FONNOUtIzS6gNDlhtRB1KhhO1e9wnBIwzD3nnvRHSL76Anf/HcF692 VZJUKpVMJlOlUikUCofDAbO8Ihdpy2Nzp6ecAKSCmsVGAfriY/dG+3XXed21ro6oG0RKWkb6Lnyn MVBf1PQhGx9dPkR2bkEo9wkBKSDXDdy+jmflRh0eoXFbi/NuNH9VpVJB2R0U7SQSCTDtdTodEmmL 0FK9JpfCU4HcNkbr8Nzsh7tnpx9Tj7ZC5a+IV/Xo4Y40UwzD3nznuG3gdhR5h/EJjGxWge+EWV9w yuaUXLvy9SPXBK+iFjrjolXhRNSQOzeNGZlZh45+yK/ci+bfNTc3u91uaFdCY2iamppgpgLB3zMR WZSWV8gdsw/RA1+hUIjjeGtra2trq8VikUqlGIYR/KrwBu1VCA5YerqCZlQ2u8Bx7FAzxTNzuCVV tsHb0QVS9Pu08b5fG3VyXYBpxNks9sJjNzU3TWctURQFAzkR447Dq4qw8dIrQFcqlWCgIpFIJBJ1 dHRYLBaj0Rh2h2faLubu3Px7Az2bCnuCOuAERmJOHmdHtQHHffLJJ+iPrOyCIcv1tPSMECt4QRcj MXly7H5K2q7A1cuk5NQocpOd9ru3vr8wOmIJUNtcX/PMzUwivrBKpcJxHJJHIyMjWq2WxWJh0Wi8 pHd4yuXyS5cu/QjIz887nU6RSOT3RDOuienJMX5lrd/U24zLmZiYzMzKCaUQir1gxH4zcrd3avx+ 2Z4gTKhnz55Ojtl2TudJrNdjVFt/fNB6I4pbf4hAKirwyNr7XedfNKTtDptbGjg5n88pRtoCFoul ra1NrVar1ernz587HA6U2oxcWyA7t4C034UT4TgOrprJZHrNJ6KfCHFkJxwjAYY341k5C4/dabuY T589oXeS+H1uTRf/2mM6v5vFfuvwByD7Ffhr5xfxZ1wTO6fz5EfeFMOw1LSMRw8fLC3OM6M0dSU5 OXW4v7eouDyK/tIXHvX3Xb3TZ0xOTi0XHCjg8FLTdgWNmxFB5NNPP1UoFEiUHc26wDAsgZH08MHo s2fPwm6JiY2LW11ZgkrHyMgI+M6RkZHV1VWCIM6cOdPa2spiseBEnrXVyTH7wO1ruzKyBHXvVQje DgAi4+ISBi3XCrmli4/diYkpfo+ccY1fvfj/zbun8zm8sup98CuePXv28IGzsLg8kFnExS8vznt2 jKiCn91kX/3xC+c+351bmJ4RUZ4SjYqLiYlZWnwc9aznumft3kAP0gPbbM87EmlrbW3FcRxITDBU qbm5+ZWfq9wXobYAGrTX2toqFAozMjIgDpbJZGjuNyC2QfMPoXNks1mF6buY446RxMTUxYW5DQL0 h7uYmV5k5+zcgiHLjfVgcp/5HP7OEVWI9RtBCw4cGbJeD/tDZ1wTkPucn5stF7zd9JFiK0pHpL3f ca/fCx6Fvl6JtOG40WiUSqVNTU0w7oIOrSLXFoDeG0BsBoMBZjdCCoye888v4h878Tt+RW3oWY6a A+867t1NSGRs1LKCZ+auLi/5y8CwQ9n3d450j/9eKA6vCqYSbuqzVleWhu/0QVDFJsqbPlJEvbHY K2+yuhwR66yQW2of6IO9vqWlRSaTgVqJTqdra2uj5RHLI+QNoRMJBAJoiW5vb4fsKZqcHUYODs/M 2X/ofdI2sHuTyhQsNhcqZIFXQRF/h+T5N2zZ21f//rhjJJSHCUL+YX0PUwAAIABJREFU3quXrD2m 1PT0w+//CzDrtmhwB93rB2UYBduOX4i0SSQSmPoFjaCdnZ10gghoC0SCJ6DDE4AURVFisRiwlFar pTedhrGAZrrRYDRq7qFfOm82ix1K5YXDr54ad+xoM01Jy+CWVAeuoMKQ9+uGv62vefbsqz924nfR 7dsMuiLs3EWDxHEch15QGPrd0dFB7wkJu1BEz7ghfG2xWAQCAZqCJ5FIIjFT+HobgkvnvY2Ystms ggehMS52wr4fqAEanlFft78wPz98p+/q5a9gyPvxE6dr64/nF5VFFx457Xd9RanQgsQ4dO5SEQzj QtoCUNBXKBTt7e1cLjcmJkapfNV+E7m2AHR4vtiscRzDsKamJpVK1dbWFnjABsLsm602rXvWZlwT G2Vsdueyx+w/GaJ0kD79N985PmTtgf1udWUJ8nmD5h8yMrNQ3Si6m/vy4nxf94UL5z63D/bZBvq8 d7GX0qGoJs6rfHNqInwqE9IWANORSqUWi4UgCLfbzeFwoHyKRUNbAEpfy4vzIpEIRouD3gSaexsg 69l1Xme6eHbQ0r2pMw5augle1UaZY3qLQaD9amcQpWODBunckqr+vm6QDIGmjtAFaTeb/jRd/Ou3 ei2GYfvqjwoPHqHHT3BrQUGktbXV7XYDN3SzLQB+8Q1qiaEoqqOjo7m5Wa/XEwQBMnqvgFRkJf7s XDZQ+g0GQ3NzM1BRcRyXy+X0CZrocaVXKw4d/XBq3BE60WTGNe64d7fojdLA3yco4wLPzNkJShPB VU8qBPUZzByCv2eLmjro7JDdLPahox8Wl1UDfkcMo7a2NqlUCgkdkiQhcJTJZBqNBpgrkQSOviJt EolEo9HA6Hn0YknlgUifh+JS0jYA/w2hMJfLlUqliE6ADBTIXKvLS6Afnc1ixycwKgQHzDe+sw32 BT0RNTd9rev/7qmtD9wh48WM8ZPyI8kX+9XrBlLeVSg/R8TF53P4W9FyNDlmG7nT02P6OjYWI/iV b5TXeNU8UtN33evv41fWlpWVffzxxyKRiMVimUym1dVV6CT+9NNPW1paEhKThu/0hN0nQ2+JSUpK kkqlLBarrKxMJpPRgVToLTEBENvc9GRScmp6RtaZM2cePnzY2tra1tZ28uTJnp4eHMdxHHe5XNk5 rLu3rr759ru5+Ry6nTESkws4vEHzdWr2YXZe0UY9NjOu8e+/PcerEAbVT2UkJo+NDuXkE36TehRF lZeXf/zxx8nJqdupzeb/Hk2ODW/zKam5adjO7tw0JqelBWjdRJ279DQ4+B6SJBFADtqqEVpe8xZ4 aIfDIRKJWlpavAQgsBBaYoIDqcJiYDhotVqQQ4PXm5qaALqBSv9GwCU+gbH34OG1taXvOnW+AcCM a/xaV0eP6Xz1m++EWO9g5XOd9letxUaj0WKx6PV6iK9kMhm2M4jS8dYeUzaLu9U5TuylrM2Y/e7K yhIrnxviFFNgrqAaQVtbm0AgwHGcy+XSB3RHKIHkpS2wEaaB54GancbDJTxk5xbQhzaRJKnX6+Gp IwjC4XDAAxlgLmF8AqO8po6anbYP9ll6uvDM7JcP/0xcfDy3pJpXvif0bth8TrG1xwSCKCAipNPp BAJBc3Nza2srug5FvKrpScdrnI8c+/TZk81CyM0up/3uta6Ob/7zz9OTDm5J9VuHP0DRZyj3FQEp i8Wi0WhaW1t9qUxRAFLFpb6JBd8VYWIBqOKQsGxra+NyuSaTqaOj4/nz562trcB6wV6KSwZwYHhW jvDgkYPiXxdyS+F/++qPvnX4A/qY3RATuogRazQacRwXiURms7mlpQUwK5PJxHYAUTq2+s0GpC5E Z5eRJGk0GiPJPCNiMmm7k5GZ9dbhf9qsLgP24xaAzs5OtVoNjzhJkiqVil5pjBBI+bbEqFQqJpMp FAq5XC7SgCB41aFoQIQYYEgkko6ODnjYRCIRHe8T/D2uYAW2+AQGnpUD/wu7aJxXyJ102jAMa2lp UavVCoUCrFOj0TQ0NDgcDmwHEKVjEWFer9ejNKFer5dKpSaTSSwWozsUeuITkPv3fz+XkMhAs47C lgBCLQAKhUIikQBNRCgUek1HjzBw9GqJUSqVJEmazWYoSiE/F3mFFjFEgT8AjgBxX15tx9ulNY6k ekmShHxfTU2N2Ww2GAwSiUSv10N+uoDDf/T6wtNYaCLDMAzHcY1GA5QLjUYDuT2RSATfMpTQE+i3 3+q10NcBxOTIBYlQqwaIMMLtdLvdWq2WXnmPCpBCCRqdToeoUkBnBlSBRUNbGTFR1Gq1WCyGildr a2tLSwtFUXq9XqlUJjASC4r42+DAUCEX8n1eO75KpQIf/3qJ0rFwS3Q6ncVioSgK+Se5XK5UKhsa GtRqtRfV3BdgQt2ItN1hsbmA3KM7ARu1AFAUBVQm7GVFik5lCluUCj0PjMRECNRgC4ZTAFME7iI8 D8nJqZFUaBETRSAQOByO58+fd3R0gDOTSqUikUihUGDbqDW+m8WGywt3v62tDXZ8t9vtcDiampp0 Oh1sI5GEVREhfVAxtlqtarUa4j+JRAJ1PK1WC/bqK8/5cnO/Oem8HxMbm1fIPSj+9dYpuCKALBKJ Ojs7gVWk1+vRHYUV+VRjSBjlF/HVajUo6YlEIrVa7aVWErqYXmAHxuFVATML6NgoTgW8j7TGt3Tq /dSEwzU+6ll7Vd1oaWlpaWl5hYCdzvn5eey1EqVjBQKBWq0Gxw7D4CiKUigU4PaVSiXcKl8P+q1e u/jYXSF8e/+hxrAlwcIIHKHUXlNT43A4ok5lQhoQIFXicDjAg6pUKhS4ww746OFkJNQhOhMF6Nhq tRpMlg5bI9wfAqzVlaXR4f6rl7965JooF7x97MTvvA6wWCwgtGGxWMAXvEaidKxcLgcZTpIkIR8B hTuITZuamlBu0iuDyOaUxMTER9iIEkbgCNYjk8kAiUedypTHfiGmB80nQqFQLpeTJOl0OtGJIHCM RL0nm8V2z04vL84LBALwDlwuFz5fLpcj2BpYEyXMDIzPUBdf6rpOp4O5wIClAORhr48oHdva2oq9 rI9TFNXa2gqlCDBZXz+KVs2BI/Nz05GEaOEBKfgTSuECgQCoTChCjZzKRK+8q1QqyCPClaEnPXiV tZGr9yBxSZVKBci6qamptbUV9Cyisj+gtamhLlCNg58MWAq+Eq+y9rUIocWaTCaj0Qi7vEqlEggE cL2CvnMruqVDBFKAn7RaLaIyzdMkWiOkMiExPThLU1MTAAu9Xk/fjvHMnAinfRYWl04677/YBAhC IBAoFAqNRmOxWDJoe1TYmihogSzXtStfr695DjR8EGJvBUA6cPAGgwH4aK+LMBULxTEglQGKgrR8 UCYibP2F3NIha8/2fFfIwCMqE+gvazQayEigw7j8mgg3SlZhMVLvUSqVRqOxublZLpd7xT+8ilpX BAkjegUI8DVk3Do7OyGVgfaHsCNCumrx+/98prb+eOi9k4DqzGYztBugItnWhcsBVpzZbAaFDxjy DnohCQwGee8OfSrrRisru2CkvzcxKTloa3wUHqkfU5nOnDkDUiWnT5+mBycwb/LpsydhU5nSdzHv D1vZRCm/pKysrMxkMp0+ffr06dNetX48M8faeyU3vyhs+Ig0UaAZKykp6eOPPz59+rTL5aLPj1xb XZyffcTcnRs6PEIjg0ur9+9961dhqBbjOP7ll1/KZDIWi6VUKk0mU1lZmUgkSk5O7e+7WsDhxcbF bZuZxjx//pw+iSuPXQx5FvP1LlZh8Ua9YF6o/4fvvvKdkLQVa/Gxe+D2dV9Y6rUmx2x3bhr3H2oM +0Sjw/0JiYygQ2qsvd/5jmTYVLx49fJXTR8pYAuG3D7s+xKJBPVLhT6dZ8Y14ZpwUHMzBL+SX7Ev Quq6SqX65JNPAEKRJIl8/PaP5olFsxC8au7lgjrbwO3Aqi9o6+dX7t2erR9RmQIfFjmQyucUIyDl ByxTVFtbW+QyqPSp9zqdjslkmkym1tbW58+fNzc3owpt0DiYrucDBPao9E7CNwEkDV0GEUoIhm+m pdW1fuWWkpJT+ZV7b31/IZRPqRQeerLu2Z5Uhe+YFL8rciDld9qn0WiEqqnVasVecDGZkTVhF0Pr nEgkggow4Fdg09HjYL+ao9Ts9JD1BjT3+h3qsu5Zs9sX4H/hSUyqVCpU64eKz/YnUGMDlFKALzJg vhrKB9Gb+7YaSNF7QiiKgiw0UJkQGAcgFcmJYLwT3X1yuVy5XA6VBbQjE/w9kbgWJL5CEASd/U0Q hJf4Cp2ZhYa6jPT35eRzobnXb4dFAiPx7Fnys8/uffbZvf/273fPniU39fX0er1er+/o6IBaP01K KFLR982ZaeB/Lq85EOLWj2fm8Cv39vd1b/U3hooUbJQYhkGdzOFwmM1mrVZLp2xGyD2D3kv47UKh 0Gq1arVah8PhJaQfuQwqK59rD0Z1Rcys1ZUl28Dta1e+np+bffPtxsB6PhRFnT1Lrqw8hT/37886 dYoIcBbUl4a8AEEQIpEI6cAplUrQ1+bw9kSYNo6mmcYnMMprDtz6/kIo+wXgrW3IVtDHpBiNRuTY 4FLK5XK4lJGHUMiAwH0CB9doNMbExNCJYwS/MpLSF6hYBj2Mw6+2DdwOcahLb+/sZ5/dU6nu9/bO VlfjGIbxeOkBbBSykBfOfT496WAkJiIvAMlKsVgMTefYSwF4PDOHW1K9tDC/I8wUnEp8AiNEhv+b 7xx33Lu71VELHUgJBAJEZUJd9nApI1cpo8ugqlSq9vZ2cN7Pnz+HdDccFqEMauhT7/fVHw881GXd s3b58tR//+/9Z8+Sc3NrjY35//PTqlOniMbG/H/7V/+aukC//P7v5zAMOyj+dXlNHbekmq400dDQ QBBEa2srEA/AEYjF4pn5Zyw2f3vMNKQJ0E/WPdeufP32ux8GeHzBu7S2ttoG+8bsd4UHj2zp956a cKwsLtbWHydJEqhMIPjoVT8bMF9dnHf7bSoKcQ1Zb7CJcg6vCphiAoFALBYbDAa5XN7U1BStHM3U hGN+bjaUQXiB17pn7b/9+10eL33fvqz9+wMpdC8vzjtsVvugOS09g80t9epzunbl/DvvnaAHuyRJ QqcUNKC3traqVCqtVovvSnn2dO31e1PY+vfU1vd1+9/6YfIBaC5bLBZ+RW18AmOrt36kwozjOJBR Ojo6KIryojKBSlkkJ8pjFwOQghsDJRmQe6Y/EhEGGCFO5wm6EhiJ//PTqt//viSAjdKHuoBsh28v nlfHKUgKWCwWaNsSCARAo9Pr9Yytb/YM1UwBkGZk5vhu/TCzprm5uaOjQ6vVAiME1Py2tPKLMo4w GATDMFSAtlqtKHCMHEjRkbhIJIL4zGAwgGAJHYlHEmAsPnbHJyQE1SAJ0VIDwyP6UJeNeiu80sZA QUZ02IaGBqvV2t7ejuP47PT4Ttn00dbf233pQMMHsPUDdwbHccibQEZNKpVC/dc22Hd/yBxJHSjo omanR/r7oCIllUobGhoEAgG09QmFQrPZjJzHkOWHSIKQccfI+pqntv44DMbdqD16wHyVmn24qSZs ENQeHx15/uxZEa+cy6/ZCj1Dam7aPtAHE9cLuaUhkqzN17vKBW8jjh+6pEajUalUAv1DJBKZLv41 gLlHsp6se9yz09Ts9MzDidhNObCKmrprXf8XQYrm5mYgrBiNRmjybG5uBmIiv6I2OSV1dLh/68wU qZRB5gVESoCF+CPHEDGQymNzIcAQiUQBZMk2RXlBgtori4t79om2SJYLZNKgd3KzzT9I+QKWQqFg MplMJhPathDJE8/Kia5k3+Jj9+hwv/l6F0g+ZuYUvPPeibh//6/KTWDSlNSVpaXJMVthcfnJkyfr 6uowDEtKSmpvb29vb3/48GF7e/tvfvMbeD0nr8jSeyUrm7Wl44TnpqfyOXwcx1UqFYvFAp7E2bNn gU8Dy+NZfuSaCHtuDn3Mg1dW8tKlS19++SWO4zDmISjlZXVlaez+yNCdnpXFxwS/Zl/98cLi8sDT iMJYy4vzg5bve4xfr64swnCIDObuzTJFYLbHG2VC4KwIBIKPP/74448/TkpKOnnypFAofPjwoUgk 2pWRNWD+vpBbGskXXl1Zmnn4gLx3d6S/b/GxOx1ncnjVB0QfEPzqrOz8pOTUzZkphmF45m77sDlt 1670jN0IA3755ZcdHR1Op/M3v/kNAr8JjKRdeNbdaE9Bp6/UtF3WmyZ+ZW1lZVVSUlJPT8/p06c/ /vhjuo1iGJaWjkeogpSQwLDdvUUfv6TT6Y4dO+Z0OgmC+MMf/mC1WiUSSVx8vG3glu/vfbLueTg1 Zh+4TdoGsnLy9uw7DFNKoj5rfXLMdvva5QHzD2lpeNmefaEMdQnwcPpOm5fL5TA7ANr6WCwWv6Rs fHQwPoERxokWH7ud9qH7w9ax0eHk5PQCTsme2obS6jpWQbHXo7vpyxSfwKh+s+Fm9+XjJ15I+mg0 GihUQHzd1taGGr7yi/ik7e7ocH/YHKIQgRS/olYikWzE5gYRkakJR9gJIxRgQFwOPCaz2QwxgEKh EIvFRqNRJBJZe67Qm+wWH7vHHSMzrgc5eRx6qBfdhYa6MBITWYXF1bX1UflYNIMFpXSg+0ipVEL6 z2QyiUQiaGAMUboHwnFq9uGM60H6Lnw3i123pymokF5sGN8+PSODTZTc7H7BStHr9dDSBZmpzs5O esP0vvrjD8ZsW4f6kdyzf/RAUdB/EmHlHcMwbkk1oryARhCKU3Ecl0gkL9sw3oSZBUBZAkoyFI22 wkah+/yb//wzNfuwcu9B4cEjUeTXoRks6GeiFnmj0YiENb34Bhs5znHHCESc83OzbKL8VxL5kQ9k NfvfDUXsMT7ce1bVe/XS5NhwflEZ6B3rdDqkieCVH9lXf/z29W/31zduBSHVy8+hZTQa29vb9Xo9 uFgOr8rS07W6Ev7kk+zcgmsDX9ccOAJ7CD0bhdF0jQhe9cDt7x89nCwo4ntlyOmrt3fW7X5xX5lM RklJnNcHhrK/D1l+WFlZKuSWbh3ZF5QvauuPYy/r+1BMkUqlMJKYoigcx6GF3/cJmXFNAFSPi43P 57wR9n6yiYSU11qYn7f0dL3XJEtJy4BSkMFggH0fHjWg08K61tURFxcbSTUolIQRRiuW4DgOYj7o 9lt7v1tdXoqwIpWTz+VX1EKCFpIyL55bLtdgMICnmXGN45k5gZuNentnEVmJx0v/t3/lbFYUsa/7 wtraUtgihKGDm5vdl5s+eiWGAJKdAPOhSdpgMNB56KsrS+7Z6UeuiRnXRDaLnc8pyWYVRaiPG76Z YhjmuHd38bG74dhvYYgMvaXdq4N+3bN24dzn1W++g2dFX86XzoFnMplQyqPr9iD8+61ee+joh5Hk SqB3AH4vjuPNzc30vqVQVm/v7M2bs3b7QiQ2im2G0h/h6u/rJvh76DRW8KAURQmFQqTSevHcF7uY mQvz1NrqckERPzuvKL+IHy1B0k0jffpiZuU47UPPsecFhcV1dXUqlQr6kwwGA4vFunHjBo7jSUlJ GIbFxcVn5RRYerry2Nyo99BAwigmJhbPzBkZGTlw4IBfLBX5AFI00Do7t+DkyZNJSUkwgxR72cYe YOO22xcuX546e5Y0m90YhjU05GZmMpKT48OzUQzDkpJTw4bYm1rPnj2bcU3AjFOLxVJeXq5SqUCz Oy8v7/Tp0y89HhYTE1P1ZoPgwBGQF49iHiM2wvfv2Vc/0t8DsggYhmm1WtCvgyFgdEE/aEN13NuS adCo8g49xBsdFjmQQk3YOI7LZDKFQgF0abFYDELPfhcQk/v7qepq/Pe/L/njH6uPHs37Lx/mbWSj M67xUNjoG1H6o31tX/ENoP70/Plz2DahTA2LX1EbCh5a96z19s729s5uq5kmJacWcktvdn8DNiqR SEB2VCQSNTU1QfICHVwhqJ+bcW1FLwqqvAM/0ncwCKxIKMxP1j2jw/2Oe/3rnhV4BboGgC79/Plz kiQ3Etl84430U6cI1Sflp04RPF46ApdeNrq8OD9gvnrx3Be3frjkuNcflIkCGkHbIi75QjoYbReQ 6EB/biSGhywSNhPUQXDz5ubMNKJNH1YGc/ek0/706RPIA6tUqrNnz548efLUqVMCgcBkMqHoLS4u Hs/KvX3971vUPvtoajyfwy8rK8Nx/MaNG6urq8PDwzCLDAXKa6uLc9NTm6pIUbPTDlv/vbu3YH54 2Z4XqCUpKQkGPABygnI/BDleq6AgpaAgJcAm6LTfHTT/cKfPGBcXy6sQcEuq19c8lPshq6A40M2L i1+cn1teXshg7t5SM01OSR2508uvrF1dXe3s7ISf/OmnnxIE8eWXX8rl8rW1NV+BnLNnycuXpyYn l69enb56ddpuX8jMTNy/f/fRo3mNjfmhp4QnHMPRiR7KBXW9Vy8BoCMIAlESEa6iPZeF3JKqIWtP tFLQ9L3puuFvNZ410GQFjgH0RkqlUqTZG0DW3m8iGnghfueHoxuj1+vb29tBLIgO/0OBQU77HdI2 kJaewSosps9az+cU3+y+HLQDm1dZ+/3fz0VYqwy6QDp4xjUuk8mUSqXFYoF9Qy6Xy2QyxJzyslHw o3NzHh4v/ejR/DCSbhiGrXtWb3ZfiI3Kz0hKTuWWVEEbqlqtVqlUAIRhKojXwRWC+q1oQ4UBpCAi QlGUWq02GAwqlQoy0kj+HFWkAmdhQu83UiqVKpWqqalJrVbjOE7XWw3gIWyDfUAKWV/zAOnTK+kY IqUfeqO3QckLDXmTSCRQxFGr1W63W61W+9ooGCgKb44ezdu/PysMG4X7lZqWEVFCymsFVaAgSVKj 0ajVampu2njhr1FPSlOz0457/Uc+kEEjBMwDhzgVJTVhhyVtd/y68xnXxIRjZHFhnlchDJFWx+Vy zWYz3AM4r9cG4pWTn3TagFOHlDs2WlMTjkeuiYZjvw38BZz2uxPk0FYnUJ+se64b/nb8xOml5ZXA OQ3fZ3JpeWWj49c9a0ETHdbe72Kj+Euqa+sDtKG2tbUJhUIOh4O9bEONugKFL4UZ3KrD4fiRSj+v ipqboQMp6Ce+duW8a8LBq6gN3G/knT14+ckkSXrp59OxkbX3O6AkBx6F5RXGgLjkTgBS8QkMkA6G MWuhvzGBkeh7PAxouNbV0fkXzWSwdsX8otJoelPkjY58IPNyonK5HDT06BtE13kdq7A4uhovqCKl 1+sFAsFG9FAkqvNk3TN2f2TCeY/NKeHwq0NXAkNLp9OpVCrQ529paYEcDfSgymSyGdf4oLnbPTud x+YWFm96EoFt4HZSSmrQCLWv+0JCImOrI1RQ/vH17lCXMplMCoUisAXPuMYnx0YmnfefPnvCzMrZ ncteoNyhiCDFRveXQBuqtfc79IperxcKhaAS6hXEvPnOcdvA7ei2oeaxudALKpFI/Noo0HxAVGd0 uP/ala8xDPuVRL4ptTr6kslkZrMZArXm5maVSgUKNuiGuWenA3d0BEvTDgQ9bHtU+pF08Ksoi6Kg N5ogCA6HI5fL/W7rMBis8y+aWz9cWl/zwPiQ8pq6bBY7J5+N1DO3z0wxDCuvOeC4dxdI9TqdDmI1 eh6YHv7zK/cOWW5sxd60keeDbq2UtIzM3fkgl1xbfzxC2jxUDtEYIMgpQiUsm1WYmJgcNsShi60G NKDCuNj4bQBSKIGKricMzrRYLDKZDM0PgiTGgPlq13ndN//5ZxgMdlD86/2HGovLqukdBGj80Hab KShQQBsqMD8CzECrFB6KehsqXVTHy0aVSiWaX//WEWlU9MBgxwCwD6oTBEHQixoRDuZDYqvBMlMR nSV0vE9v4Z+fn6+pqWlubu7s7ITqBuwhA+arxgt/XZx3c0uqDx39MPBgsOxc9oxrbLvNFHaHXczM QUs3juMdHR0QmKJtAob3of+ANtQobv10UR205HI5EJl9syeRrHXPGjyNHR0dMpkMbpJSqfyRGlRk g/lCBFKRj/8LMYFKv7YQ5EA6RSgUQkoOwzAuvyY+IYFfuTcUphGelTMWbLuIQhXK72Jm5QxZe5i7 897gla6trX355ZcSiQQaM5KTk7/44ovV1dWRkRGr1frer47GxMbeH7ydV1gcNetZ88zNTOZz+MhG LRYLEGKidQroN7rZfXF9fYVVUKzRaORyudVqhZYbrVaLylFxcfHLi/OR1Io8a6uPqRnfihRFUVE8 S4hrdXlpacENXwbH8cbGRpIkGxsbP//887q6Or1ev7q6WlhEjI8OJqekJaUED8dT03bZBs2o6Wpb zTQ2Li59F7P/pongVx8+ckQkEl26dOkPf/hDY2NjaWnp559/fubMmbNnz0LyPys7f3x0cOnx49AF kQOv5NQ01G4mFApZLNbZs2cxDLtx4wb5ciH21mYXvd+I4FXcu3urbE+dSCSSyWSrq6tnzpzBMMxk MlEUBa2LGIYlJCYNWq6FjcRT03fZB8z0TiwMwz777N6DB+ugDxWVs4S4EpOSRofvoC+D43hdXR1F UZ9++ik8qNB/+/Tpk4cPQh0a/ZiajYtPCEBbid2634Nn5WRms6w9XfBjYEKaVqvt7OwEuE0/eF/9 +1HsRUHzwTAMEwgEoHALzbuql2uzs1jXPWvACxmy/LCbxT509MPismo8KwdBHBzHnU6nRCKB2sz8 /DwKyiOEOEnJqWj8H1qZmYze3lm6Ds32ACkQ8IJ9H+6jWCxWKpUw6RSFVTAqKMTP3M1iP3AGyp7G b+lP4pZU9XZfmhyz5RfxMzIy4LaB3APIT6CVkpZRIXx70NITFQWKGdeEe3Z6N2sOwzCtVut1rs1/ 2ivR98q9B71a3QHicHhVJEnqdDooQaEGRi+IEzYrHI3/Q68cO4b39s5eMcwdPZoXrbOEGi4XcqHz pLOzs6GhAQ13BSip1+uhjwNmrYfiULNzC+yD5u2GUHTUX1E2lfAlAAAQzUlEQVRTd7P7wrpnraWl xWq1gtoU1PpVKhVIg8PB/IraXfjuCBUonqx7bAO3R4fvvP3uh/SyLUmScC6pVAqT40JxnyDHQBd9 95VjQBCHIAg0Rz3qEMdXZArHcR4vvbf30fYDKTQ0GnQloHwDc3hhtjk8ogR/T4h02PgERlp6RoBy 1NaaKWz9rAIC2lC1Wq3ZbJbJZAAM4QBIhr/c+iNqQ6Vmp3u7LyWlpL7bJPPK1QuFQqfTKRaL4TvQ E0Yb7e8wLJhbUu1X9N3LhmAQmd+uAchpRD7hPI/N9RKZ2rcva27Og/pVsJdqvVs9ADcpOTUxKQWs SigU0nd8sFo4LJSOU/q+P+NyvjYzxTCMX7n3MfUIPSswJw2GuEEbKvJt0IY6aOkJz4n23/r+QMMH Nfvf9WUzgKuDuQsBeNPLi/OgRkvNPtxXf7S6tj6UDXSjWhEI9TOZTHgUI6wVFRa/mqP+4tkTpCUn x3lRjDn86uiq5Wz0ZSadNgzDkN65xWKBLgZQP4W7mV/Ed4cWK2ezApWjtsNMMQyrEBy4+VJ3Eord kGAD5qKXyPwufLdt4HboH7742H37+pWnT58dP3F6o4KnSCRqa2sTCATQE/LJJ5/4NdBv9VrspRpt 6LVNr1oREuoHNqPb7RaJRDqdLupAKoGRWF2NgzA0atvIZhVGOMUlJKvKLYCiNNw72PdB9N1sNsNs cwzDMjKzFih3iL8uQDlqm8w0bRezoIh/resr2BlBGhxG1UNOmB4s7qs/7npAhng7R4f7zTcMe/aJ 3joiDUAJU6vVkNoE1WOv4u2Ma/zCuS8wDHvr8D8Vl1WHQS9EtSKLxYI6T2CvgAZU6JSKRkXqVSa8 t3e2v5/CMMxuX8jMZNCB1FaX+L2K0kC7oXOLAXLk5HHn3dMhmz77gXP4dZophmHFZdUry0u2wT7Y fzUajclkgvmoUqlULBajmObF1h9sGuriY3fv1UtLi9TxE6dDESkARp9EIlEqlWKxGCj9yAOlpmXk 5LPD5r8iIAXTfqEtWKFQgFORSCSQrI0Q4sA4TASkhIK0goIUv3At6nOjA2eRIOun0+n0er1cLlep VNBZhGfmLDymQkdmGzVUbp+ZwtY/aP4B7iXI9sL8VlDLh+mgaOsP3IY67hi509f9Rrmw4dhvQ2wg hoGLYrEYlORhHin61wjnSNGB1KupNAQB9w/DMIVCQZJkhEAKprggIJXASPQrDJ3ASGRzSrYaSDGz cubnprGXRL6Ojg6TydTe3g4DieAiJDASQ39a8KychceU37Jw/HaaadouJsGvvNn9DXAWvYQngLOI No4KQf13nTpqdtoLxKyuLA1ZbsQnMA6//y+bJY5A7wDC4/RWaS6/5tsBLb/CE7ZDLSwu9e1eQikq pFnE4Vf3mM6HXSsq5JYO3L5Oz7XBfJLdu596AalbP1za0nmNScmpS4vzcBlBsxvV9CNIdRXMuMY5 vIzX6U3hKj9Z99gG+zAMa2pqghQGhmFtbW1AMqK7BN9B6OOOkd6rl4p4VQ3HfhsGuYl+Eb3Afkpa RoQeyC/pDjKI9Mg7QiAFRSCvFOOpU4SXfWwDkEJsIaPRCJpncrmcPvggrPRlrt9yVDy27atcUHf7 eldBER8NxQIKlW+DIhqEXl1b/2TdA1P8RMd/G7YgkUKhkEqlnZ2dCoUCZLpAZ4bu5yLxQKgiBRgC 7plIJALOFJpzHmGtCCQtgobjEMZEvUcKGm5d46OetbVyQR1FURaLBUm/RFjwy84t8Ms/jt1+MwUF iutXXtwzsVjsl9sPd7pCUL+8uAB9nrtZ7CMfyMKwUWpuuuu8bsY1ThCEwWAA3M1kMjUajVAoRE2n kdfE6aQ7wIgmk6mzsxMaBpH/ji6Q2mhtSmQ9xMTfkPUGNNyWC94GIXaj0QhBFAwm8HLqM67xtM1I IcUnMJhZOb7lqNdgprD1YxgG+jO+6SHspVSqVCqFrX9uxiU6/ttQpqb7LqDoJqWkQv8uJL9IkjSb zQaDwWw20yPUyMnFCEhlZGTAgBeg1dI1UaILpDZaMMUlciCF5qMO3L6OZ+V6abVCjQ3GyBAE4St/ kpCQsNkEwqRzZ5gpFnAQOrT5g7RvW1tbNqvw2Infhe1EXeOjbx3+J37F3gnnPfBAnZ2diC1BT/KB n4uwSxNVpGQyGZKw5HK5MMSCDnEiqkhxvStSfhfBr4qkIoXc58riIugV+DbcymQyt9vd0dEB86ph xjESK5gcG8lgbu7GZbPYvoPoX5uZ+h2EDjqpbW1tMplMJpPBqNzNMu5g2Qb7vv/7ud0stvDgkfgE Bt0DiUQijUYDhCboXqL7uYIi/tj9iCacA5DCcVwgEICPcTgcwJxCz8NWACnflV/EDwNIPVn3AFQF qev3//kM9DPSQSdE3ggwCQSClpYWGG5Gx/uTzvs5+ezNXkBEFHz9Zor5DEJva2sTi8XNzc0Oh0On 00ERVaFQ+O1XDLCWF+dNF/86Zr+79+ARet6HW1INbrK5uRnGxoF0h5c0C6+yNsLZxqgiBb8Fzflk MpkoDo48wEBV9VCAVKj7z+w0jAFaX/P4yr1AEwQKyZxOp0aj8YX2wBCHwPTpsydpm5fpZGbleJWj XqeZYj6D0A0GA4wB12q1YJ0tLS2w+4e4nPa7f+/UpabhwoNHvIryScmpNfvfhVHbEokE5kcKBAKV SgWTDl/kRDJz0ncxI9EOolP7MAwTCoVyubympsbtdtP3/ciB1ITzXtDJ3KEAKXCf166cH+nvy8nn Nn2k8NsOLpPJII7v7OyUyWStra0SiSSAXOad3i5+RTja3HmFXK9y1FY1mYS4YuPiUtJ2QS/K22+/ gzaLsrKykZER0NYLsclu3bPWY/z6gfPentp3cgs4G4CPpIrKyj/96U+NjY0Yhp05c0apVLJYLC8h pJiYmAlyJDefE/bvQt1LN27cGBkZuX79el1dHfS0QH8LFnH3kt+BOL4r8LQqJDaYmoZX7j1Uc+Bw Vnb+Rj1J0DH78ccfg/bgmTNnkpKSLl26dPLkSd+sfl/3hZhYLLwhR4zEZNuguai4PIGRtCO8KYTM KWnpvtNQoX6j1+vpG+VGa3LMduHc5wxG4v5DjQF2mYX56flpO0oYQZ7BS4sF86feEzaQAocKDeyg h4rmqUYFSAWY4kIHUl7OCblPx71+NlF+/MRpcJ/0VnVIiHqZKVC9CIKQy+UKhQIeb/ovQtmVR9MP wnOlL63iR4IAr99MV1eWnqx7fMEEMO1hXtZG9FBwote6Om5f/1ZYJw5l+tT6mgcljBoaGsANAJai i+kR/MpIMDICUgRBNDU1cblcoIGbzWatVgtMP71eHxUg5YuLfYEUGoc545ro7+u+bvjb+prnnfdO HPlAxuFVQfQJKkPwFtDdgLwyPceEqF7w4KlUKq8nHICBa3x078HDkejY7c5lz0yN7xQzHXeM3L7e BcVP+ut6vR4oKRBBbhQAzbjGv+vUxcXF7q9vDDFUh9nGqOlFLBYzmczOzk6vUUH8in0RTjhHQApE T6GPD7AUl8u1Wq1wgyMHUmhaVWAgdedm97Ur5yccIwR/D7hPrxyfRCLR6/VglBqNBqbRYj9mPiCq FwxV5HA40IaJvZxQ9a1ei2flQHYlkqsHSX4Uece/LgN9su7p7+vGMMx3eBLsj4iSQlFUc3MzvaoJ TnTQ0j3uGKkIQdrOy88BURJKmiKRCHKoQIFFkB9NOA+7dprH5toGbgMdDE1PBDk7gUCgUCheaEzz qq09V/gVe8O7r17TqgIAqZXFRV5lrd/0M0VRIK4LfrSlpYWiKLlcTpIkVJXpBysUCovFIpFI4DFb 96yR9n77wK2nz55EcUJVfAIjm8WecY1BHSHKinwhrhnXxJC1h1+5N2hhCSgpAoGAoiiAlvC6tfe7 ccdIeCPRvGQDgSIJk/IsFktHRwc8D5FPOEd6evAr1Go1IH3YLlH5O0I9PTStKuzvqVQqORxOS0sL 7PsOh0MoFCoUCvi2XC7X4XD43cpQw21Qrdbwdlo07iv2tTjRCcdIKMVPEAuHqiZIP6N/qhDUP33y JDyUQ1fvQcK5OI6r1eqmpiaE2CCki4RkhIAUMNtRNgrtrVEBUoHHYYaykOI7fEOj0ahWq5VKJVit Vx8ifY5FcloaNNxuRcs16l/dbjOlZqevXfkaz8o51HjKa/dZ96zBsAv6/dNoNKiq6aWXFnZzHw0j 98HHymQy2IV1Op3T6Qw7Nx4ASMGf0MMO5HagMQCajhhI4WtrK0GBFPoO0LlAR/ENDQ0wcBWioPb2 dpFIBNFnTU0NmiYwOWa71tXxrV4L81H3H2oMIGAW+YL+VfAm25Q3fbLuuT9snXDcqxM3FZf+SC3o 8uWp//N/7l+8+BA6JA8dKniVq3c6XS5XXV2d0Wg8duyYWq0eHh52uVwajaauri47t+CBcyQ8SR80 4Twra7dKpWpsbBQIBMeOHaMo6k9/+hMS7WFmsSw9VyKauxITMzlmI/jVjY2Nw8PDnZ2dBw4c0Ol0 oNO7urp648aNuro6LAYLXcrGK+s50t+Xk8fJyslP3ZiAC2pTOp3OZDJdvHgxKSlJqVSiyWNlZWWQ BGWxWJ2dnTdu3GhpaYH0U1lZ2fLi/L2B3lvfX5qecubkF5ZV1+bmcxiJydtgNsuLj0GvKnZ7nGhv 96W4uATf9nkMw954I21l5QXznC7gAdG61WqNiYlBiKq9vV0qlXI4HAgf99W/75p0hLH1ownnqOKl 1+uhl5eeL4RujQib66EiheN4S0sLxKPQ247jOIiDYpusSK2uLI0O90PWE42Xhpo7NB+juAV+CHTy wGPf0NCgUqk0Go1EIkEbF47jZrPZarXCcGQUiSL3uTjv3gb36efqFXIfuSa2A0KNDvc/GLPtqz/u l8Z7+fKUyfQQw7CVlaf792dBv4TfBfcAUDN9qI1tsG/MfjcMoEPNTo/09x078TuvUFiv1wPrBQGF HtP5SEaDIiAFO75EIlEoFIgSjohaQYEU4iMvLswT/EoObw8EThRFQW0dWlhxHFcqlfC8SaVSsDlQ dQToBm020Hrud+Dq8uK8w2Ydsw8xEhOjrjq/2XX18le/ksi30JtC56fHs+a385OiqM8+u3fp0mRB QYrqk/L9+7P+y4d5XtEqqvUrlUq5XK5Wqzs6OrwGLwHCDcPh4Vk5KDcOaVrocnG73TU1NSjVHzlX GgEpkUgERS+wpNArUsAIQXzkpo8U9LGLOI7rdDq1Wg2yDhBqkySJngTId3Z2doIHBSfqWzrCMMxp v2u6+FdwnzUHGnzHAG3/gnLUVnlTcKKCA0fok4PR6u2d1evHMQxraMj12ujRdnOz+wKemQ1pfyaT aTabN5JnCnt8z9SEY35u9q0jUqPRSCcPgEow3MuOjo7IJ9qYr3fxKmo5vCoY4Q64raGhwWQycTgc 5NIunvuitLoWoebVlaVJ56hr0pGcnFrEqyJ41QFmU2EYhvylXq+H3k6UaYK9yOFwgOQMpKLReZcX 522DN9EUtdduml7Zw9lpV/TT+6jz870mmd+uOpi/xuOlf/RRji9lYd2zdrP7wmPqkbBObBu4bRvs 41fUggfa0C9m5nBLqmyDtzdrSdm5BZCBp2ew9Xo9sFGBgweZKUtP1+rKUhgzHmChHikcxxUKBUrx QHEcmQtUpNJ24TDdb211meBX+pY/fJdCoRCLxUajEZwlKqc1NDQolUqZTIaCVGg9p+c+0aCVffVH w/6BW+lN2f193f8/1xydhI+8SA0AAAAASUVORK5CYII= " />
    <g
       style="fill:#ecec00;fill-opacity:1;display:inline;enable-background:new"
       transform="matrix(0.9626146,0,0,0.9310344,-314.62813,444.29757)"
       id="g4344">
      <rect
         rx="10.5"
         style="fill:#ecec00;fill-opacity:1;stroke:#000000;stroke-width:1.05630875;stroke-miterlimit:4;stroke-opacity:1;stroke-dasharray:none;display:inline"
         id="rect4346"
         width="64.165535"
         height="21"
         x="412.03183"
         y="520.64337"
         ry="10.5" />
      <path
         style="fill:#ecec00;fill-opacity:1;fill-rule:evenodd;stroke:#000000;stroke-width:1.05630887;stroke-linecap:butt;stroke-linejoin:miter;stroke-miterlimit:4;stroke-opacity:1;stroke-dasharray:none;display:inline;enable-background:new"
         d="m 461.5,541.5423 c 0,-2.89893 0,-1.89893 0,-4.89893 -3.56354,0 -28.5,0 -32,0 0,3 0,1.5 0,4.89893 2.09169,0 10.95821,-0.0894 14,4.60107 1.88088,2.90037 2,12 2,12 0,0 0.11912,-9.09963 2,-12 3.04179,-4.69052 11.99745,-4.60107 14,-4.60107 z"
         id="path4348"
         sodipodi:nodetypes="ccccscsc"
         inkscape:connector-curvature="0" />
      <rect
         style="fill:#ecec00;fill-opacity:1;stroke:none;display:inline;enable-background:new"
         id="rect4350"
         width="37"
         height="13"
         x="427"
         y="528.14337"
         ry="0" />
    </g>
    <rect
       mask="none"
       ry="0"
       y="860"
       x="0"
       height="140"
       width="226"
       id="rect4119"
       style="fill:url(#linearGradient4140);fill-opacity:1;fill-rule:evenodd;stroke:none;stroke-width:2;marker:none;visibility:visible;display:inline;overflow:visible;enable-background:accumulate"
       rx="0" />
    <g
       style="fill:#f00023;fill-opacity:1;display:inline;enable-background:new"
       transform="matrix(0.9626146,0,0,0.9310344,-387.13764,434.05619)"
       id="g4304">
      <rect
         rx="10.5"
         style="fill:#f00023;fill-opacity:1;stroke:#000000;stroke-width:1.05630887;stroke-miterlimit:4;stroke-opacity:1;stroke-dasharray:none;display:inline"
         id="rect4306"
         width="63.990452"
         height="21"
         x="412.0325"
         y="520.64337"
         ry="10.5" />
      <path
         style="fill:#f00023;fill-opacity:1;fill-rule:evenodd;stroke:#000000;stroke-width:1.05630887;stroke-linecap:butt;stroke-linejoin:miter;stroke-miterlimit:4;stroke-opacity:1;stroke-dasharray:none;display:inline;enable-background:new"
         d="m 461.5,541.5423 c 0,-2.89893 0,-1.89893 0,-4.89893 -3.56354,0 -28.5,0 -32,0 0,3 0,1.5 0,4.89893 2.09169,0 10.95821,-0.0894 14,4.60107 1.88088,2.90037 2,12 2,12 0,0 0.11912,-9.09963 2,-12 3.04179,-4.69052 11.99745,-4.60107 14,-4.60107 z"
         id="path4308"
         sodipodi:nodetypes="ccccscsc"
         inkscape:connector-curvature="0" />
      <rect
         style="fill:#f00023;fill-opacity:1;stroke:none;display:inline;enable-background:new"
         id="rect4310"
         width="37"
         height="13"
         x="427"
         y="528.14337"
         ry="0" />
    </g>
    <text
       transform="scale(1.0168183,0.98345988)"
       id="text4085"
       y="960.13654"
       x="87.733276"
       style="font-size:15.13409805px;font-style:normal;font-weight:normal;fill:#000000;fill-opacity:1;stroke:none;display:inline;font-family:Bitstream Vera Sans"
       xml:space="preserve"><tspan
         y="960.13654"
         x="87.733276"
         id="tspan4087"
         sodipodi:role="line">20h30</tspan></text>
    <g
       style="fill:#3fc600;fill-opacity:1;display:inline;enable-background:new"
       transform="matrix(0.9626146,0,0,0.9310344,-358.74906,454.53895)"
       id="g4284">
      <rect
         rx="10.5"
         style="fill:#3fc600;fill-opacity:1;stroke:#000000;stroke-width:1.05630875;stroke-miterlimit:4;stroke-opacity:1;stroke-dasharray:none;display:inline"
         id="rect4286"
         width="64.165535"
         height="21"
         x="412.03183"
         y="520.64337"
         ry="10.5" />
      <path
         style="fill:#3fc600;fill-opacity:1;fill-rule:evenodd;stroke:#000000;stroke-width:1.05630887;stroke-linecap:butt;stroke-linejoin:miter;stroke-miterlimit:4;stroke-opacity:1;stroke-dasharray:none;display:inline;enable-background:new"
         d="m 461.5,541.5423 c 0,-2.89893 0,-1.89893 0,-4.89893 -3.56354,0 -28.5,0 -32,0 0,3 0,1.5 0,4.89893 2.09169,0 10.95821,-0.0894 14,4.60107 1.88088,2.90037 2,12 2,12 0,0 0.11912,-9.09963 2,-12 3.04179,-4.69052 11.99745,-4.60107 14,-4.60107 z"
         id="path4288"
         sodipodi:nodetypes="ccccscsc"
         inkscape:connector-curvature="0" />
      <rect
         style="fill:#3fc600;fill-opacity:1;stroke:none;display:inline;enable-background:new"
         id="rect4290"
         width="37"
         height="13"
         x="427"
         y="528.14337"
         ry="0" />
    </g>
    <g
       style="fill:#ffffff;fill-opacity:1;display:inline;enable-background:new"
       transform="matrix(0.9626146,0,0,0.9310344,-238.39159,431.72861)"
       id="g4380">
      <rect
         rx="10.5"
         style="fill:#ffffff;fill-opacity:1;stroke:#000000;stroke-width:1.05630875;stroke-miterlimit:4;stroke-opacity:1;stroke-dasharray:none;display:inline"
         id="rect4382"
         width="64.157616"
         height="21"
         x="411.8653"
         y="520.64337"
         ry="10.5" />
      <path
         style="fill:#ffffff;fill-opacity:1;fill-rule:evenodd;stroke:#000000;stroke-width:1.05630887;stroke-linecap:butt;stroke-linejoin:miter;stroke-miterlimit:4;stroke-opacity:1;stroke-dasharray:none;display:inline;enable-background:new"
         d="m 461.5,541.5423 c 0,-2.89893 0,-1.89893 0,-4.89893 -3.56354,0 -28.5,0 -32,0 0,3 0,1.5 0,4.89893 2.09169,0 10.95821,-0.0894 14,4.60107 1.88088,2.90037 2,12 2,12 0,0 0.11912,-9.09963 2,-12 3.04179,-4.69052 11.99745,-4.60107 14,-4.60107 z"
         id="path4384"
         sodipodi:nodetypes="ccccscsc"
         inkscape:connector-curvature="0" />
      <rect
         style="fill:#ffffff;fill-opacity:1;stroke:none;display:inline;enable-background:new"
         id="rect4386"
         width="37"
         height="13"
         x="427"
         y="528.14337"
         ry="0" />
    </g>
    <g
       style="fill:#d76aff;fill-opacity:1;display:inline;enable-background:new"
       transform="matrix(0.9626146,0,0,0.9310344,-265.82611,453.1424)"
       id="g4360">
      <rect
         rx="10.5"
         style="fill:#d76aff;fill-opacity:1;stroke:#000000;stroke-width:1.05630887;stroke-miterlimit:4;stroke-opacity:1;stroke-dasharray:none;display:inline"
         id="rect4362"
         width="63.999989"
         height="21"
         x="412.02292"
         y="520.64337"
         ry="10.5" />
      <path
         style="fill:#d76aff;fill-opacity:1;fill-rule:evenodd;stroke:#000000;stroke-width:1.05630887;stroke-linecap:butt;stroke-linejoin:miter;stroke-miterlimit:4;stroke-opacity:1;stroke-dasharray:none;display:inline;enable-background:new"
         d="m 461.5,541.5423 c 0,-2.89893 0,-1.89893 0,-4.89893 -3.56354,0 -28.5,0 -32,0 0,3 0,1.5 0,4.89893 2.09169,0 10.95821,-0.0894 14,4.60107 1.88088,2.90037 2,12 2,12 0,0 0.11912,-9.09963 2,-12 3.04179,-4.69052 11.99745,-4.60107 14,-4.60107 z"
         id="path4364"
         sodipodi:nodetypes="ccccscsc"
         inkscape:connector-curvature="0" />
      <rect
         style="fill:#d76aff;fill-opacity:1;stroke:none;display:inline;enable-background:new"
         id="rect4366"
         width="37"
         height="13"
         x="427"
         y="528.14337"
         ry="0" />
    </g>
    <text
       transform="scale(1.0168183,0.98345988)"
       id="text4073"
       y="949.25549"
       x="14.736448"
       style="font-size:15.13409805px;font-style:normal;font-weight:normal;fill:#000000;fill-opacity:1;stroke:none;font-family:Bitstream Vera Sans"
       xml:space="preserve"><tspan
         y="949.25549"
         x="14.736448"
         id="tspan4075"
         sodipodi:role="line">12h30</tspan></text>
    <text
       transform="scale(1.0168183,0.98345988)"
       id="text4081"
       y="971.49683"
       x="44.185364"
       style="font-size:15.13409805px;font-style:normal;font-weight:normal;fill:#000000;fill-opacity:1;stroke:none;display:inline;font-family:Bitstream Vera Sans"
       xml:space="preserve"><tspan
         y="971.49683"
         x="44.185364"
         id="tspan4083"
         sodipodi:role="line">14h00</tspan></text>
    <text
       transform="scale(1.0168183,0.98345988)"
       id="text4089"
       y="968.65674"
       x="134.12122"
       style="font-size:15.13409805px;font-style:normal;font-weight:normal;fill:#000000;fill-opacity:1;stroke:none;display:inline;font-family:Bitstream Vera Sans"
       xml:space="preserve"><tspan
         y="968.65674"
         x="134.12122"
         id="tspan4091"
         sodipodi:role="line">18h30</tspan></text>
    <text
       transform="scale(1.0168183,0.98345988)"
       id="text4093"
       y="947.49945"
       x="161.26904"
       style="font-size:15.13409805px;font-style:normal;font-weight:normal;fill:#000000;fill-opacity:1;stroke:none;display:inline;font-family:Bitstream Vera Sans"
       xml:space="preserve"><tspan
         y="947.49945"
         x="161.26904"
         id="tspan4095"
         sodipodi:role="line">20h30</tspan></text>
    <rect
       ry="9.9191427"
       y="860"
       x="0"
       height="140"
       width="226"
       id="rect4617"
       style="fill:url(#linearGradient3659);fill-opacity:1;fill-rule:evenodd;stroke:none;stroke-width:1.99999988;marker:none;visibility:visible;display:inline;overflow:visible;enable-background:accumulate"
       rx="0" />
  </g>
</svg>
